digraph model_graph {
  // Dotfile by Django-Extensions graph_models
  // Created: 2019-06-04 07:55
  // Cli Options: web -o myapp_models.dot --dot

  fontname = "Roboto"
  fontsize = 8
  splines  = true

  node [
    fontname = "Roboto"
    fontsize = 8
    shape = "plaintext"
  ]

  edge [
    fontname = "Roboto"
    fontsize = 8
  ]

  // Labels


  web_models_Article [label=<
    <TABLE BGCOLOR="white" BORDER="1" CELLBORDER="0" CELLSPACING="0">
    <TR><TD COLSPAN="2" CELLPADDING="5" ALIGN="CENTER" BGCOLOR="#1b563f">
    <FONT FACE="Roboto" COLOR="white" POINT-SIZE="10"><B>
    Article
    </B></FONT></TD></TR>
  
  
    <TR><TD ALIGN="LEFT" BORDER="0">
    <FONT FACE="Roboto"><B>id</B></FONT>
    </TD><TD ALIGN="LEFT">
    <FONT FACE="Roboto"><B>AutoField</B></FONT>
    </TD></TR>
  
  
  
    <TR><TD ALIGN="LEFT" BORDER="0">
    <FONT FACE="Roboto">title</FONT>
    </TD><TD ALIGN="LEFT">
    <FONT FACE="Roboto">TextField</FONT>
    </TD></TR>
  
  
    </TABLE>
    >]

  web_models_Paragraph [label=<
    <TABLE BGCOLOR="white" BORDER="1" CELLBORDER="0" CELLSPACING="0">
    <TR><TD COLSPAN="2" CELLPADDING="5" ALIGN="CENTER" BGCOLOR="#1b563f">
    <FONT FACE="Roboto" COLOR="white" POINT-SIZE="10"><B>
    Paragraph
    </B></FONT></TD></TR>
  
  
    <TR><TD ALIGN="LEFT" BORDER="0">
    <FONT FACE="Roboto"><B>id</B></FONT>
    </TD><TD ALIGN="LEFT">
    <FONT FACE="Roboto"><B>AutoField</B></FONT>
    </TD></TR>
  
  
  
    <TR><TD ALIGN="LEFT" BORDER="0">
    <FONT FACE="Roboto"><B>article</B></FONT>
    </TD><TD ALIGN="LEFT">
    <FONT FACE="Roboto"><B>ForeignKey (id)</B></FONT>
    </TD></TR>
  
  
  
    <TR><TD ALIGN="LEFT" BORDER="0">
    <FONT FACE="Roboto">text</FONT>
    </TD><TD ALIGN="LEFT">
    <FONT FACE="Roboto">TextField</FONT>
    </TD></TR>
  
  
  
    <TR><TD ALIGN="LEFT" BORDER="0">
    <FONT FACE="Roboto">title</FONT>
    </TD><TD ALIGN="LEFT">
    <FONT FACE="Roboto">TextField</FONT>
    </TD></TR>
  
  
    </TABLE>
    >]

  web_models_Category [label=<
    <TABLE BGCOLOR="white" BORDER="1" CELLBORDER="0" CELLSPACING="0">
    <TR><TD COLSPAN="2" CELLPADDING="5" ALIGN="CENTER" BGCOLOR="#1b563f">
    <FONT FACE="Roboto" COLOR="white" POINT-SIZE="10"><B>
    Category
    </B></FONT></TD></TR>
  
  
    <TR><TD ALIGN="LEFT" BORDER="0">
    <FONT FACE="Roboto"><B>id</B></FONT>
    </TD><TD ALIGN="LEFT">
    <FONT FACE="Roboto"><B>AutoField</B></FONT>
    </TD></TR>
  
  
  
    <TR><TD ALIGN="LEFT" BORDER="0">
    <FONT FACE="Roboto">name</FONT>
    </TD><TD ALIGN="LEFT">
    <FONT FACE="Roboto">TextField</FONT>
    </TD></TR>
  
  
    </TABLE>
    >]

  web_models_Link [label=<
    <TABLE BGCOLOR="white" BORDER="1" CELLBORDER="0" CELLSPACING="0">
    <TR><TD COLSPAN="2" CELLPADDING="5" ALIGN="CENTER" BGCOLOR="#1b563f">
    <FONT FACE="Roboto" COLOR="white" POINT-SIZE="10"><B>
    Link
    </B></FONT></TD></TR>
  
  
    <TR><TD ALIGN="LEFT" BORDER="0">
    <FONT FACE="Roboto"><B>id</B></FONT>
    </TD><TD ALIGN="LEFT">
    <FONT FACE="Roboto"><B>AutoField</B></FONT>
    </TD></TR>
  
  
  
    <TR><TD ALIGN="LEFT" BORDER="0">
    <FONT FACE="Roboto"><B>from_paragraph</B></FONT>
    </TD><TD ALIGN="LEFT">
    <FONT FACE="Roboto"><B>ForeignKey (id)</B></FONT>
    </TD></TR>
  
  
  
    <TR><TD ALIGN="LEFT" BORDER="0">
    <FONT FACE="Roboto"><B>to_article</B></FONT>
    </TD><TD ALIGN="LEFT">
    <FONT FACE="Roboto"><B>ForeignKey (id)</B></FONT>
    </TD></TR>
  
  
  
    <TR><TD ALIGN="LEFT" BORDER="0">
    <FONT FACE="Roboto"><B>to_paragraph</B></FONT>
    </TD><TD ALIGN="LEFT">
    <FONT FACE="Roboto"><B>ForeignKey (id)</B></FONT>
    </TD></TR>
  
  
    </TABLE>
    >]




  // Relations

  web_models_Article -> web_models_Category
  [label=" categories (article)"] [arrowhead=dot arrowtail=dot, dir=both];

  web_models_Paragraph -> web_models_Article
  [label=" article (paragraphs)"] [arrowhead=none, arrowtail=dot, dir=both];

  web_models_Category -> web_models_Category
  [label=" parent_categories (category)"] [arrowhead=dot arrowtail=dot, dir=both];

  web_models_Link -> web_models_Paragraph
  [label=" from_paragraph (links_from_paragraph)"] [arrowhead=none, arrowtail=dot, dir=both];

  web_models_Link -> web_models_Article
  [label=" to_article (links_to_article)"] [arrowhead=none, arrowtail=dot, dir=both];

  web_models_Link -> web_models_Paragraph
  [label=" to_paragraph (links_to_paragraph)"] [arrowhead=none, arrowtail=dot, dir=both];


}
