georel,2
35504712,1
2616701,0
27599179,0
868280,0
34017955,0
17032752,1
36686502,1
32238511,1
144869,0
7778187,0
32115422,1
30268317,1
51805067,0
2336722,0
28519149,0
492768,0
14973219,0
14227252,0
623839,0
55633,0
5385152,1
410233,0
23103744,1
40767780,1
13433854,1
361361,0
12663924,0
2826958,0
28298778,1
40364810,0
22095950,1
1214505,1
3959923,0
georel,3
15256422,1
16152114,0
24815956,1
5454008,1
14848575,1
873541,0
469823,1
27240,0
15235370,1
286428,0
8253485,0
17482940,0
30537592,0
9946474,1
3096135,1
14278685,1
766808,1
1525846,0
448234,1
16998413,1
449412,0
16632113,0
9837203,1
17005091,1
8128548,1
262187,1
17630489,1
57597772,0
7404196,1
29235592,1
17566302,1
670485,0
6209976,1
34593475,1
6150122,0
57622761,1
21850932,0
21860189,1
19847474,1
25547786,1
6004586,1
3983225,1
3622332,1
766778,1
766766,1
20200540,1
24757863,0
17890650,0
2509307,1
17370936,1
georel,4
14419544,1
22831482,1
2394776,1
218115,1
54089632,0
41186100,1
16181136,1
44557989,0
25755464,1
12822385,1
223309,1
60373165,1
15918640,1
15438122,1
15569232,1
23207197,0
15608360,
14619659,1
45108987,0
15569210,1
georel,4
17869292,0
19239273,1
2961562,1
501732,0
25860151,1
15431462,1
35574316,0
12944685,1
15701901,1
15771618,1
15415117,1
19250459,0
5447898,1
2212536,1
569491,1
32675102,1
15578051,1
25496698,0
7349809,1
56055277,0
12944867,1
40553009,0
53515602,0
25547392,1
50557533,1
714285,0
15811170,1
59860170,0
24116222,1
7386729,0
24053410,1
49414450,1
7209381,1
30890090,0
15787791,1
732125,1
36238117,0
3665617,0
23627872,1
52439118,1
27976376,1
3585923,1
24899350,1
60300193,1
6697497,1
15431268,1
22489119,1
13835771,1
15793991,1
32655593,1
georel,5
36155508,0
15929143,1
44102127,1
36413679,1
36064762,0
6293076,1
49267794,0
17487200,1
57927780,1
42541194,1
349037,1
28344793,0
16131520,1
59832387,0
845588,0
7363821,1
13123955,1
16193915,1
11915198,1
27806315,0
57743031,1
49954433,0
23537663,0
3945809,1
37127961,1
21946669,1
21329987,1
28460698,1
29406532,0
59248733,0
7152724,1
54333538,0
7013853,1
18155723,1
24561282,0
18924606,1
33792240,1
7134976,1
21822911,1
33174059,1
40480833,0
4286404,1
8636623,1
29708839,1
843079,1
57219049,1
24399927,1
43222303,1
21822602,1
14458565,0
georel,6
23504034,1
30659190,0
55714,0
43928424,0
56471291,0
28796594,1
43016414,0
55650247,1
797721,0
14430153,1
23500373,1
1442920,1
26329096,0
16375179,1
41924172,1
41082420,1
12003308,0
2028013,0
4131322,0
1697135,0
639963,1
43468472,0
4356130,1
29333042,1
37966939,1
43079744,0
30966700,0
1719772,1
2559998,1
35710780,1
52360781,0
29604576,1
55880237,0
962919,0
683100,1
39968963,1
26038095,1
11902197,0
31193180,0
40915683,1
4510256,1
44356083,0
22712565,1
47672260,0
47027160,1
3581426,0
329348,1
13273439,1
19156059,0
7083193,1
georel,7
2677349,0
15901647,0
36844297,0
15752055,0
55733541,0
57573287,0
34015591,0
51379518,0
34777549,0
14312712,0
6641370,0
24033012,0
19912256,0
41234435,0
41045681,0
21991226,1
31578606,1
10612344,0
21002445,1
44184539,0
1429277,0
49312477,1
46809148,0
3645346,0
6532856,1
390951,1
216773,1
26282504,0
1776764,0
4836297,1
23476660,0
22137322,0
24223321,0
23557754,0
1721514,0
47138050,0
31048564,0
59896071,0
48978265,1
25546181,0
20979627,0
56952172,1
21031220,1
977128,0
122296,1
39711195,0
21401232,1
37973413,0
22186543,1
15425321,1
georel,8
48525410,0
39142654,0
3330576,0
47793100,0
45602481,0
43827830,1
36611764,0
10700108,1
56193776,0
18003162,0
31724699,0
3010019,0
28761634,0
24763506,0
22194178,0
12861328,0
13298879,0
47797033,0
23097594,0
18746817,0
432314,0
55116347,0
30819434,0
26261941,0
14286380,0
56252724,0
25504545,0
28744180,0
7457427,0
9162195,1
399817,0
34970200,0
37058439,0
20845449,0
26821774,0
7149284,1
60123854,0
5592426,0
44430048,0
24433836,0
3829726,0
2377926,0
27112308,0
7361068,0
5264255,1
57729744,0
6481859,0
45327340,0
11416404,0
53526256,0
georel,9
1266533,0
44449874,0
15931958,0
37429911,0
11101839,1
8342273,0
1453192,0
49421729,0
18667457,0
16711751,0
32391634,0
22140894,0
1566254,0
7015600,0
6419203,0
25829430,0
26001941,0
7693858,0
1059399,0
35441306,0
40578137,0
20220727,0
58572728,0
23711551,0
8752629,0
794163,0
26737842,1
4584644,0
1202722,0
12542204,0
58333044,0
12464853,0
9340429,0
42096014,0
31475442,0
59208463,0
23712854,0
39168582,0
18181179,0
3963565,0
9270433,0
183306,0
27282869,0
37564160,0
32707310,0
80770,0
55635427,0
57842141,0
30948161,0
53361017,0
poirel,2
41564856,1
147625,1
5328765,1
20657585,1
31357766,1
48418930,1
560777,1
1160872,1
2675144,1
47605922,1
977502,1
56899498,1
5371543,1
17118551,0
25034604,1
525098,1
11760012,1
16253057,1
31189327,1
573053,1
57316959,1
1162110,1
1416970,1
319294,1
3308911,1
52330541,0
3491469,0
14938664,0
11299570,1
58057729,1
12343899,0
3210824,1
60460923,1
1416965,1
3695385,1
5371503,1
12851541,0
57646019,1
20974036,1
8741743,0
40182099,1
38177173,1
59486730,1
55926394,1
37426466,1
774172,0
46775387,1
57735951,1
1144736,0
2176556,1
poirel,3
45702969,1
32621728,1
23397040,1
2009511,1
4201107,1
1983049,1
28885338,1
48336156,1
1947181,0
286560,0
11462421,1
12339326,1
33484180,1
192485,1
1269756,1
56831689,1
46834459,1
29482700,1
49407308,1
33612661,1
51605846,1
17259059,1
32896212,0
46316795,1
4161230,1
22535881,1
30496700,1
5332053,1
32728835,0
29451267,1
57159241,1
21046621,0
55266200,1
33781741,1
11553131,1
3475655,0
6755122,1
9196946,0
53673551,1
990319,1
47269395,1
2562775,1
21761355,1
5153080,1
54099146,1
4035943,1
36841853,1
52784588,1
3587976,1
972563,1
poirel,4
26149674,1
27072860,1
58907470,1
54531219,1
59896855,1
25783749,1
2470309,1
20470280,1
10762227,1
17813740,1
36281810,1
15957182,1
50311093,1
22866010,1
21938611,1
23394464,1
676737,1
23910461,1
242104,0
27303775,1
424445,1
12219904,1
98616,1
56440078,1
29159901,1
35028778,1
14479916,1
25585371,1
5764899,1
22898725,1
35476161,1
11758012,1
18980324,1
12722719,1
59533238,1
2535471,1
43589483,1
47317776,1
28202925,1
45272929,1
47706748,0
48100564,1
22261194,1
286376,1
21561380,0
59255376,1
1308611,1
863323,1
11716100,0
39911936,1
poirel,5
45266016,0
37647893,0
33225506,1
7782789,1
19260036,0
43480413,0
33368972,1
20588843,1
40488224,0
15390422,0
6415715,0
3152704,0
3818232,0
58828819,0
58022795,0
57671309,0
25871248,1
52343256,1
54166984,1
31615456,1
33608225,0
51055138,0
19041578,1
57638736,0
8277765,1
50726902,0
42180842,1
5139384,1
6802917,1
27656683,0
8639528,0
18893391,0
43215687,0
9086929,1
48349659,1
1218039,0
10574234,0
9684136,1
15502116,1
19316411,1
51392038,1
707286,1
24414097,1
26422171,0
6628490,0
45075879,1
33568172,1
28093319,0
57538171,0
56121161,0
poirel,6
52226292,1
50468495,0
46478273,1
18070364,0
9453906,1
37016158,1
10062426,1
30388432,1
24239751,1
13877219,0
38263320,0
32901772,1
1020689,1
22358237,1
21917387,1
43789225,0
39960757,1
7476080,1
11671126,0
36434904,1
3228337,1
7433099,1
48852024,1
4321378,1
34142584,0
6219178,0
8941139,1
51319516,1
4807248,0
47118842,0
15176675,1
28362639,0
43412218,0
36760027,1
38614563,0
50542,0
21608096,1
9304082,0
53436137,1
3502122,0
13118386,0
12992018,1
12320054,1
19716137,1
3777719,1
2964652,1
15798035,1
12028369,0
26195216,1
46814059,1
poirel,7
39193877,0
13994911,1
34986204,1
17538489,1
24484867,1
47089398,0
57075779,1
12033487,1
31121841,1
53243445,0
34710140,0
4467142,0
22494373,0
854027,0
18000949,0
30490868,1
57226594,0
14278400,0
4971619,0
48413473,1
39412411,1
22825958,0
27436894,0
56637491,0
58880087,0
51349773,0
42635922,0
44135551,0
225646,0
55800339,0
42203371,0
51056858,0
14259843,1
60262426,0
16220181,1
11205850,1
24687983,1
44011888,0
19108200,1
35287533,1
39971277,1
29927622,1
14061237,1
17753270,1
39234661,1
31343139,1
30150879,1
58979040,0
9283410,1
22235885,0
poirel,8
22638820,0
905021,0
51925440,0
49253123,0
13490451,0
35678766,0
49960061,0
51268336,0
20872395,0
28886745,0
15557728,0
8585446,0
13722685,0
49049885,0
8548673,0
40482297,0
28252120,0
18645339,0
4748348,0
43078266,0
7825009,0
18985863,0
59117720,0
22349165,0
39604068,0
23391679,0
44179252,0
13697814,0
40179755,0
6338338,1
32070875,0
17987383,0
28246024,0
19874282,0
53069115,0
39860720,0
5732619,0
57416770,0
43765223,0
42611241,0
60213356,0
23584571,0
37434049,0
956410,0
58962371,0
2288661,0
58021301,0
18764340,1
14184714,0
12778878,0
poirel,9
8857878,0
16468658,0
22434,0
19623896,0
21224291,0
45336,0
18553664,0
25017061,0
17109763,0
964274,1
4168034,0
24450142,0
18585704,0
59115897,0
19293342,0
25008481,0
58704628,0
53537590,0
7385054,1
15752057,0
7299947,0
23706910,0
16793200,0
1862418,0
16024927,0
23746122,0
8021197,0
41578106,0
42506428,0
45223381,0
53813203,0
56540024,0
3215687,0
5791374,0
poirel,2
poirel,9
20906848,0
37926769,0
1566803,0
7244409,0
2417192,0
6340181,0
614988,0
60153703,0
12418596,0
54239629,1
45020815,0
1328353,0
7527514,0
45304884,0
50969065,0
2582878,0
1505592,0
43334717,0
6040932,1
10594613,0
1666548,0
15878626,0
15431411,0
56653249,0
26050843,0
20528879,0
14577037,0
36589562,0
1773209,1
28901624,0
25833626,1
39486151,0
22393144,0
10831018,0
35470487,0
47659033,0
49064921,0
43088375,0
23852711,0
493703,0
338005,0
56493163,0
46384827,0
3178677,1
28791543,0
41255102,0
28317991,1
18164108,0
33313575,0
27580866,0
