[
    {
        "topic_id": "1",
        "document_id": "4206247",
        "relevance": "0"
    },
    {
        "topic_id": "1",
        "document_id": "4161230",
        "relevance": "0"
    },
    {
        "topic_id": "1",
        "document_id": "14921432",
        "relevance": "1"
    },
    {
        "topic_id": "1",
        "document_id": "36048595",
        "relevance": "1"
    },
    {
        "topic_id": "1",
        "document_id": "3906818",
        "relevance": "1"
    },
    {
        "topic_id": "1",
        "document_id": "7185755",
        "relevance": "1"
    },
    {
        "topic_id": "1",
        "document_id": "997248",
        "relevance": "0"
    },
    {
        "topic_id": "1",
        "document_id": "1255817",
        "relevance": "0"
    },
    {
        "topic_id": "1",
        "document_id": "3414645",
        "relevance": "1"
    },
    {
        "topic_id": "1",
        "document_id": "3633470",
        "relevance": "0"
    },
    {
        "topic_id": "2",
        "document_id": "13326965",
        "relevance": "2"
    },
    {
        "topic_id": "2",
        "document_id": "28044462",
        "relevance": "1"
    },
    {
        "topic_id": "2",
        "document_id": "36437612",
        "relevance": "1"
    },
    {
        "topic_id": "2",
        "document_id": "28156993",
        "relevance": "0"
    },
    {
        "topic_id": "2",
        "document_id": "14777491",
        "relevance": "1"
    },
    {
        "topic_id": "2",
        "document_id": "8348847",
        "relevance": "1"
    },
    {
        "topic_id": "2",
        "document_id": "606539",
        "relevance": "0"
    },
    {
        "topic_id": "2",
        "document_id": "7107864",
        "relevance": "0"
    },
    {
        "topic_id": "2",
        "document_id": "1242544",
        "relevance": "1"
    },
    {
        "topic_id": "2",
        "document_id": "53684712",
        "relevance": "0"
    },
    {
        "topic_id": "3",
        "document_id": "25166206",
        "relevance": "1"
    },
    {
        "topic_id": "3",
        "document_id": "11442669",
        "relevance": "2"
    },
    {
        "topic_id": "3",
        "document_id": "58426777",
        "relevance": "2"
    },
    {
        "topic_id": "3",
        "document_id": "33259682",
        "relevance": "0"
    },
    {
        "topic_id": "3",
        "document_id": "1019720",
        "relevance": "1"
    },
    {
        "topic_id": "3",
        "document_id": "4829082",
        "relevance": "0"
    },
    {
        "topic_id": "3",
        "document_id": "1709485",
        "relevance": "0"
    },
    {
        "topic_id": "3",
        "document_id": "28623561",
        "relevance": "0"
    },
    {
        "topic_id": "3",
        "document_id": "24566736",
        "relevance": "1"
    },
    {
        "topic_id": "3",
        "document_id": "48684227",
        "relevance": "0"
    },
    {
        "topic_id": "4",
        "document_id": "22268217",
        "relevance": "1"
    },
    {
        "topic_id": "4",
        "document_id": "88146",
        "relevance": "0"
    },
    {
        "topic_id": "4",
        "document_id": "88156",
        "relevance": "1"
    },
    {
        "topic_id": "4",
        "document_id": "26536159",
        "relevance": "0"
    },
    {
        "topic_id": "4",
        "document_id": "563175",
        "relevance": "1"
    },
    {
        "topic_id": "4",
        "document_id": "33895840",
        "relevance": "1"
    },
    {
        "topic_id": "4",
        "document_id": "11054648",
        "relevance": "0"
    },
    {
        "topic_id": "4",
        "document_id": "112524",
        "relevance": "0"
    },
    {
        "topic_id": "4",
        "document_id": "23032479",
        "relevance": "1"
    },
    {
        "topic_id": "4",
        "document_id": "57121894",
        "relevance": "1"
    },
    {
        "topic_id": "5",
        "document_id": "39719628",
        "relevance": "2"
    },
    {
        "topic_id": "5",
        "document_id": "47198",
        "relevance": "1"
    },
    {
        "topic_id": "5",
        "document_id": "30519456",
        "relevance": "1"
    },
    {
        "topic_id": "5",
        "document_id": "8919690",
        "relevance": "2"
    },
    {
        "topic_id": "5",
        "document_id": "20858382",
        "relevance": "2"
    },
    {
        "topic_id": "5",
        "document_id": "56996591",
        "relevance": "1"
    },
    {
        "topic_id": "5",
        "document_id": "44246077",
        "relevance": "1"
    },
    {
        "topic_id": "5",
        "document_id": "150272",
        "relevance": "1"
    },
    {
        "topic_id": "5",
        "document_id": "27363304",
        "relevance": "1"
    },
    {
        "topic_id": "5",
        "document_id": "906764",
        "relevance": "1"
    },
    {
        "topic_id": "6",
        "document_id": "23263854",
        "relevance": " 2"
    },
    {
        "topic_id": "6",
        "document_id": "89061",
        "relevance": "1"
    },
    {
        "topic_id": "6",
        "document_id": "24342958",
        "relevance": "2"
    },
    {
        "topic_id": "6",
        "document_id": "23264785",
        "relevance": "2"
    },
    {
        "topic_id": "6",
        "document_id": "23477358",
        "relevance": "2"
    },
    {
        "topic_id": "6",
        "document_id": "42340020",
        "relevance": "2"
    },
    {
        "topic_id": "6",
        "document_id": "42963870",
        "relevance": "2"
    },
    {
        "topic_id": "6",
        "document_id": "23264220",
        "relevance": "2"
    },
    {
        "topic_id": "6",
        "document_id": "22916309",
        "relevance": "2"
    },
    {
        "topic_id": "6",
        "document_id": "18986712",
        "relevance": "2"
    },
    {
        "topic_id": "7",
        "document_id": "3775954",
        "relevance": "2"
    },
    {
        "topic_id": "7",
        "document_id": "12006243",
        "relevance": "2"
    },
    {
        "topic_id": "7",
        "document_id": "39472607",
        "relevance": "2"
    },
    {
        "topic_id": "7",
        "document_id": "27685921",
        "relevance": "2"
    },
    {
        "topic_id": "7",
        "document_id": "5496968",
        "relevance": "0"
    },
    {
        "topic_id": "7",
        "document_id": "3900817",
        "relevance": "2"
    },
    {
        "topic_id": "7",
        "document_id": "1020838",
        "relevance": "1"
    },
    {
        "topic_id": "7",
        "document_id": "33895676",
        "relevance": "2"
    },
    {
        "topic_id": "7",
        "document_id": "42632998",
        "relevance": "0"
    },
    {
        "topic_id": "7",
        "document_id": "46251017",
        "relevance": "1"
    },
    {
        "topic_id": "8",
        "document_id": "21576119",
        "relevance": "2"
    },
    {
        "topic_id": "8",
        "document_id": "580353",
        "relevance": "2"
    },
    {
        "topic_id": "8",
        "document_id": "41650421",
        "relevance": "2"
    },
    {
        "topic_id": "8",
        "document_id": "12949701",
        "relevance": "2"
    },
    {
        "topic_id": "8",
        "document_id": "41723630",
        "relevance": "2"
    },
    {
        "topic_id": "8",
        "document_id": "40923258",
        "relevance": "2"
    },
    {
        "topic_id": "8",
        "document_id": "41345632",
        "relevance": "1"
    },
    {
        "topic_id": "8",
        "document_id": "2554397",
        "relevance": "2"
    },
    {
        "topic_id": "8",
        "document_id": "18638138",
        "relevance": "2"
    },
    {
        "topic_id": "8",
        "document_id": "9779644",
        "relevance": "1"
    },
    {
        "topic_id": "9",
        "document_id": "20937543",
        "relevance": "2"
    },
    {
        "topic_id": "9",
        "document_id": "1759769",
        "relevance": "2"
    },
    {
        "topic_id": "9",
        "document_id": "13400173",
        "relevance": "2"
    },
    {
        "topic_id": "9",
        "document_id": "6846937",
        "relevance": "2"
    },
    {
        "topic_id": "9",
        "document_id": "46186979",
        "relevance": "2"
    },
    {
        "topic_id": "9",
        "document_id": "13400283",
        "relevance": "2"
    },
    {
        "topic_id": "9",
        "document_id": "46737868",
        "relevance": "2"
    },
    {
        "topic_id": "9",
        "document_id": "13400143",
        "relevance": "1"
    },
    {
        "topic_id": "9",
        "document_id": "13400318",
        "relevance": "2"
    },
    {
        "topic_id": "9",
        "document_id": "4781229",
        "relevance": "2"
    },
    {
        "topic_id": "10",
        "document_id": "1546410",
        "relevance": "2"
    },
    {
        "topic_id": "10",
        "document_id": "27875879",
        "relevance": "2"
    },
    {
        "topic_id": "10",
        "document_id": "23549643",
        "relevance": "2"
    },
    {
        "topic_id": "10",
        "document_id": "6975232",
        "relevance": "2"
    },
    {
        "topic_id": "10",
        "document_id": "25413606",
        "relevance": "2"
    },
    {
        "topic_id": "10",
        "document_id": "28845915",
        "relevance": "2"
    },
    {
        "topic_id": "10",
        "document_id": "11897277",
        "relevance": "2"
    },
    {
        "topic_id": "10",
        "document_id": "27577698",
        "relevance": "2"
    },
    {
        "topic_id": "10",
        "document_id": "55267409",
        "relevance": "2"
    },
    {
        "topic_id": "10",
        "document_id": "41766130",
        "relevance": "1"
    },
    {
        "topic_id": "11",
        "document_id": "22723135",
        "relevance": "2"
    },
    {
        "topic_id": "11",
        "document_id": "28926619",
        "relevance": "2"
    },
    {
        "topic_id": "11",
        "document_id": "3459930",
        "relevance": "2"
    },
    {
        "topic_id": "11",
        "document_id": "17702950",
        "relevance": "1"
    },
    {
        "topic_id": "11",
        "document_id": "4402289",
        "relevance": "2"
    },
    {
        "topic_id": "11",
        "document_id": "33193737",
        "relevance": "2"
    },
    {
        "topic_id": "11",
        "document_id": "33568953",
        "relevance": "1"
    },
    {
        "topic_id": "11",
        "document_id": "38897085",
        "relevance": "1"
    },
    {
        "topic_id": "11",
        "document_id": "33193812",
        "relevance": "2"
    },
    {
        "topic_id": "11",
        "document_id": "29689491",
        "relevance": "2"
    },
    {
        "topic_id": "12",
        "document_id": "54514165",
        "relevance": "2"
    },
    {
        "topic_id": "12",
        "document_id": "41078145",
        "relevance": "2"
    },
    {
        "topic_id": "12",
        "document_id": "22821309",
        "relevance": "1"
    },
    {
        "topic_id": "12",
        "document_id": "22790748",
        "relevance": "2"
    },
    {
        "topic_id": "12",
        "document_id": "1784629",
        "relevance": "0"
    },
    {
        "topic_id": "12",
        "document_id": "24799015",
        "relevance": "1"
    },
    {
        "topic_id": "12",
        "document_id": "54588991",
        "relevance": "2"
    },
    {
        "topic_id": "12",
        "document_id": "53019170",
        "relevance": "2"
    },
    {
        "topic_id": "12",
        "document_id": "53359814",
        "relevance": "2"
    },
    {
        "topic_id": "12",
        "document_id": "52803863",
        "relevance": "2"
    },
    {
        "topic_id": "13",
        "document_id": "33915283",
        "relevance": "2"
    },
    {
        "topic_id": "13",
        "document_id": "20771818",
        "relevance": "2"
    },
    {
        "topic_id": "13",
        "document_id": "3266091",
        "relevance": "2"
    },
    {
        "topic_id": "13",
        "document_id": "33915305",
        "relevance": "1"
    },
    {
        "topic_id": "13",
        "document_id": "6116183",
        "relevance": "1"
    },
    {
        "topic_id": "13",
        "document_id": "33915302",
        "relevance": "2"
    },
    {
        "topic_id": "13",
        "document_id": "33915288",
        "relevance": "2"
    },
    {
        "topic_id": "13",
        "document_id": "33915304",
        "relevance": "2"
    },
    {
        "topic_id": "13",
        "document_id": "380245",
        "relevance": "2"
    },
    {
        "topic_id": "13",
        "document_id": "31351816",
        "relevance": "2"
    },
    {
        "topic_id": "14",
        "document_id": "19014083",
        "relevance": "0"
    },
    {
        "topic_id": "14",
        "document_id": "21807640",
        "relevance": "1"
    },
    {
        "topic_id": "14",
        "document_id": "745358",
        "relevance": "1"
    },
    {
        "topic_id": "14",
        "document_id": "6738209",
        "relevance": "2"
    },
    {
        "topic_id": "14",
        "document_id": "28864879",
        "relevance": "2"
    },
    {
        "topic_id": "14",
        "document_id": "8689125",
        "relevance": "1"
    },
    {
        "topic_id": "14",
        "document_id": "24273529",
        "relevance": "1"
    },
    {
        "topic_id": "14",
        "document_id": "28608902",
        "relevance": "1"
    },
    {
        "topic_id": "14",
        "document_id": "2447011",
        "relevance": "2"
    },
    {
        "topic_id": "14",
        "document_id": "2736871",
        "relevance": "1"
    },
    {
        "topic_id": "15",
        "document_id": "675667",
        "relevance": "0"
    },
    {
        "topic_id": "15",
        "document_id": "149924",
        "relevance": "0"
    },
    {
        "topic_id": "15",
        "document_id": "856022",
        "relevance": "0"
    },
    {
        "topic_id": "15",
        "document_id": "8257877",
        "relevance": "1"
    },
    {
        "topic_id": "15",
        "document_id": "23388868",
        "relevance": "1"
    },
    {
        "topic_id": "15",
        "document_id": "25166206",
        "relevance": "1"
    },
    {
        "topic_id": "15",
        "document_id": "42120622",
        "relevance": "0"
    },
    {
        "topic_id": "15",
        "document_id": "1386159",
        "relevance": "0"
    },
    {
        "topic_id": "15",
        "document_id": "48545523",
        "relevance": "0"
    },
    {
        "topic_id": "15",
        "document_id": "5453293",
        "relevance": "0"
    },
    {
        "topic_id": "16",
        "document_id": "36425094",
        "relevance": "2"
    },
    {
        "topic_id": "16",
        "document_id": "384701",
        "relevance": "1"
    },
    {
        "topic_id": "16",
        "document_id": "43874286",
        "relevance": "1"
    },
    {
        "topic_id": "16",
        "document_id": "50438250",
        "relevance": "2"
    },
    {
        "topic_id": "16",
        "document_id": "33901523",
        "relevance": "1"
    },
    {
        "topic_id": "16",
        "document_id": "50274807",
        "relevance": "2"
    },
    {
        "topic_id": "16",
        "document_id": "50424991",
        "relevance": "2"
    },
    {
        "topic_id": "16",
        "document_id": "4187100",
        "relevance": "2"
    },
    {
        "topic_id": "16",
        "document_id": "22044836",
        "relevance": "2"
    },
    {
        "topic_id": "16",
        "document_id": "7017612",
        "relevance": "1"
    },
    {
        "topic_id": "17",
        "document_id": "2428759",
        "relevance": "2"
    },
    {
        "topic_id": "17",
        "document_id": "1352584",
        "relevance": "1"
    },
    {
        "topic_id": "17",
        "document_id": "2832596",
        "relevance": "1"
    },
    {
        "topic_id": "17",
        "document_id": "46439020",
        "relevance": "2"
    },
    {
        "topic_id": "17",
        "document_id": "2063774",
        "relevance": "1"
    },
    {
        "topic_id": "17",
        "document_id": "3091178",
        "relevance": "0"
    },
    {
        "topic_id": "17",
        "document_id": "28883179",
        "relevance": "1"
    },
    {
        "topic_id": "17",
        "document_id": "9745801",
        "relevance": "0"
    },
    {
        "topic_id": "17",
        "document_id": "20503629",
        "relevance": "0"
    },
    {
        "topic_id": "17",
        "document_id": "8359196",
        "relevance": "1"
    },
    {
        "topic_id": "18",
        "document_id": "42607",
        "relevance": "0"
    },
    {
        "topic_id": "18",
        "document_id": "165098",
        "relevance": "0"
    },
    {
        "topic_id": "18",
        "document_id": "1065445",
        "relevance": "0"
    },
    {
        "topic_id": "18",
        "document_id": "65711",
        "relevance": "0"
    },
    {
        "topic_id": "18",
        "document_id": "1176197",
        "relevance": "0"
    },
    {
        "topic_id": "18",
        "document_id": "5952197",
        "relevance": "0"
    },
    {
        "topic_id": "18",
        "document_id": "4370332",
        "relevance": "0"
    },
    {
        "topic_id": "18",
        "document_id": "1927851",
        "relevance": "1"
    },
    {
        "topic_id": "18",
        "document_id": "3004151",
        "relevance": "0"
    },
    {
        "topic_id": "18",
        "document_id": "1364590",
        "relevance": "0"
    },
    {
        "topic_id": "19",
        "document_id": "2386812",
        "relevance": "1"
    },
    {
        "topic_id": "19",
        "document_id": "26775679",
        "relevance": "0"
    },
    {
        "topic_id": "19",
        "document_id": "20743294",
        "relevance": "0"
    },
    {
        "topic_id": "19",
        "document_id": "68836",
        "relevance": "0"
    },
    {
        "topic_id": "19",
        "document_id": "7825135",
        "relevance": "0"
    },
    {
        "topic_id": "19",
        "document_id": "65430",
        "relevance": "0"
    },
    {
        "topic_id": "19",
        "document_id": "25523606",
        "relevance": "0"
    },
    {
        "topic_id": "20",
        "document_id": "43472123",
        "relevance": "2"
    },
    {
        "topic_id": "20",
        "document_id": "46565289",
        "relevance": "1"
    },
    {
        "topic_id": "20",
        "document_id": "32480554",
        "relevance": "2"
    },
    {
        "topic_id": "20",
        "document_id": "43802462",
        "relevance": "1"
    },
    {
        "topic_id": "20",
        "document_id": "7201885",
        "relevance": "2"
    },
    {
        "topic_id": "20",
        "document_id": "982732",
        "relevance": "1"
    },
    {
        "topic_id": "20",
        "document_id": "34216232",
        "relevance": "1"
    },
    {
        "topic_id": "20",
        "document_id": "4256490",
        "relevance": "2"
    },
    {
        "topic_id": "20",
        "document_id": "44949707",
        "relevance": "2"
    },
    {
        "topic_id": "20",
        "document_id": "8735481",
        "relevance": "1"
    },
    {
        "topic_id": "21",
        "document_id": "30746278",
        "relevance": "2"
    },
    {
        "topic_id": "21",
        "document_id": "30738029",
        "relevance": "2"
    },
    {
        "topic_id": "21",
        "document_id": "188921",
        "relevance": "2"
    },
    {
        "topic_id": "21",
        "document_id": "30654005",
        "relevance": "2"
    },
    {
        "topic_id": "21",
        "document_id": "30654405",
        "relevance": "2"
    },
    {
        "topic_id": "21",
        "document_id": "15236741",
        "relevance": "2"
    },
    {
        "topic_id": "21",
        "document_id": "30737980",
        "relevance": "2"
    },
    {
        "topic_id": "21",
        "document_id": "42853638",
        "relevance": "2"
    },
    {
        "topic_id": "21",
        "document_id": "30653166",
        "relevance": "2"
    },
    {
        "topic_id": "21",
        "document_id": "30746324",
        "relevance": "1"
    },
    {
        "topic_id": "22",
        "document_id": "23475960",
        "relevance": "2"
    },
    {
        "topic_id": "22",
        "document_id": "22667388",
        "relevance": "2"
    },
    {
        "topic_id": "22",
        "document_id": "6554906",
        "relevance": "1"
    },
    {
        "topic_id": "22",
        "document_id": "3492726",
        "relevance": "1"
    },
    {
        "topic_id": "22",
        "document_id": "5121474",
        "relevance": "2"
    },
    {
        "topic_id": "22",
        "document_id": "23487483",
        "relevance": "2"
    },
    {
        "topic_id": "22",
        "document_id": "24975414",
        "relevance": "1"
    },
    {
        "topic_id": "22",
        "document_id": "24572395",
        "relevance": "2"
    },
    {
        "topic_id": "22",
        "document_id": "44861200",
        "relevance": "1"
    },
    {
        "topic_id": "22",
        "document_id": "22513863",
        "relevance": "1"
    },
    {
        "topic_id": "23",
        "document_id": "158501",
        "relevance": "0"
    },
    {
        "topic_id": "24",
        "document_id": "4688649",
        "relevance": "2"
    },
    {
        "topic_id": "24",
        "document_id": "99627",
        "relevance": "1"
    },
    {
        "topic_id": "24",
        "document_id": "38954579",
        "relevance": "2"
    },
    {
        "topic_id": "24",
        "document_id": "550062",
        "relevance": "1"
    },
    {
        "topic_id": "24",
        "document_id": "33895882",
        "relevance": "2"
    },
    {
        "topic_id": "24",
        "document_id": "6990937",
        "relevance": "1"
    },
    {
        "topic_id": "24",
        "document_id": "8351187",
        "relevance": "0"
    },
    {
        "topic_id": "24",
        "document_id": "33895894",
        "relevance": "1"
    },
    {
        "topic_id": "24",
        "document_id": "25962064",
        "relevance": "1"
    },
    {
        "topic_id": "24",
        "document_id": "33895855",
        "relevance": "2"
    },
    {
        "topic_id": "25",
        "document_id": "8356174",
        "relevance": "2"
    },
    {
        "topic_id": "25",
        "document_id": "44690605",
        "relevance": "2"
    },
    {
        "topic_id": "25",
        "document_id": "45075679",
        "relevance": "2"
    },
    {
        "topic_id": "25",
        "document_id": "13969733",
        "relevance": "2"
    },
    {
        "topic_id": "25",
        "document_id": "197306",
        "relevance": "2"
    },
    {
        "topic_id": "25",
        "document_id": "1341297",
        "relevance": "2"
    },
    {
        "topic_id": "25",
        "document_id": "237999",
        "relevance": "0"
    },
    {
        "topic_id": "25",
        "document_id": "39028443",
        "relevance": "2"
    },
    {
        "topic_id": "25",
        "document_id": "24607814",
        "relevance": "2"
    },
    {
        "topic_id": "25",
        "document_id": "49395857",
        "relevance": "2"
    },
    {
        "topic_id": "26",
        "document_id": "45505890",
        "relevance": "2"
    },
    {
        "topic_id": "26",
        "document_id": "12202481",
        "relevance": "2"
    },
    {
        "topic_id": "26",
        "document_id": "22427393",
        "relevance": "1"
    },
    {
        "topic_id": "26",
        "document_id": "18893307",
        "relevance": "1"
    },
    {
        "topic_id": "26",
        "document_id": "27270282",
        "relevance": "1"
    },
    {
        "topic_id": "26",
        "document_id": "21650199",
        "relevance": "2"
    },
    {
        "topic_id": "26",
        "document_id": "36964018",
        "relevance": "1"
    },
    {
        "topic_id": "26",
        "document_id": "21220831",
        "relevance": "21"
    },
    {
        "topic_id": "26",
        "document_id": "17955",
        "relevance": "1"
    },
    {
        "topic_id": "26",
        "document_id": "21562580",
        "relevance": "2"
    },
    {
        "topic_id": "27",
        "document_id": "1358043",
        "relevance": "2"
    },
    {
        "topic_id": "27",
        "document_id": "36544010",
        "relevance": "2"
    },
    {
        "topic_id": "27",
        "document_id": "1358048",
        "relevance": "2"
    },
    {
        "topic_id": "27",
        "document_id": "58610134",
        "relevance": "2"
    },
    {
        "topic_id": "27",
        "document_id": "17560658",
        "relevance": "1"
    },
    {
        "topic_id": "27",
        "document_id": "51154963",
        "relevance": "1"
    },
    {
        "topic_id": "27",
        "document_id": "17827850",
        "relevance": "0"
    },
    {
        "topic_id": "27",
        "document_id": "50039439",
        "relevance": "2"
    },
    {
        "topic_id": "27",
        "document_id": "259771",
        "relevance": "1"
    },
    {
        "topic_id": "27",
        "document_id": "46772",
        "relevance": "1"
    },
    {
        "topic_id": "28",
        "document_id": "88384",
        "relevance": "2"
    },
    {
        "topic_id": "28",
        "document_id": "26929531",
        "relevance": "2"
    },
    {
        "topic_id": "28",
        "document_id": "26799794",
        "relevance": "1"
    },
    {
        "topic_id": "28",
        "document_id": "10851046",
        "relevance": "2"
    },
    {
        "topic_id": "28",
        "document_id": "30534348",
        "relevance": "1"
    },
    {
        "topic_id": "28",
        "document_id": "30522593",
        "relevance": "2"
    },
    {
        "topic_id": "28",
        "document_id": "17620904",
        "relevance": "1"
    },
    {
        "topic_id": "28",
        "document_id": "30678539",
        "relevance": "2"
    },
    {
        "topic_id": "28",
        "document_id": "26801824",
        "relevance": "2"
    },
    {
        "topic_id": "28",
        "document_id": "2445647",
        "relevance": "2"
    },
    {
        "topic_id": "29",
        "document_id": "22381752",
        "relevance": "2"
    },
    {
        "topic_id": "29",
        "document_id": "31212588",
        "relevance": "2"
    },
    {
        "topic_id": "29",
        "document_id": "36841281",
        "relevance": "2"
    },
    {
        "topic_id": "29",
        "document_id": "32704503",
        "relevance": "2"
    },
    {
        "topic_id": "29",
        "document_id": "31938140",
        "relevance": "2"
    },
    {
        "topic_id": "29",
        "document_id": "26637933",
        "relevance": "1"
    },
    {
        "topic_id": "29",
        "document_id": "181398",
        "relevance": "1"
    },
    {
        "topic_id": "29",
        "document_id": "24070979",
        "relevance": "1"
    },
    {
        "topic_id": "29",
        "document_id": "24089679",
        "relevance": "2"
    },
    {
        "topic_id": "29",
        "document_id": "15277176",
        "relevance": "1"
    },
    {
        "topic_id": "30",
        "document_id": "33023127",
        "relevance": "2"
    },
    {
        "topic_id": "30",
        "document_id": "5314950",
        "relevance": "2"
    },
    {
        "topic_id": "30",
        "document_id": "348725",
        "relevance": "2"
    },
    {
        "topic_id": "30",
        "document_id": "24147714",
        "relevance": "0"
    },
    {
        "topic_id": "30",
        "document_id": "222452",
        "relevance": "1"
    },
    {
        "topic_id": "30",
        "document_id": "4237220",
        "relevance": "1"
    },
    {
        "topic_id": "30",
        "document_id": "2249855",
        "relevance": "2"
    },
    {
        "topic_id": "30",
        "document_id": "12932712",
        "relevance": "1"
    },
    {
        "topic_id": "30",
        "document_id": "4237240",
        "relevance": "1"
    },
    {
        "topic_id": "30",
        "document_id": "53033291",
        "relevance": "2"
    },
    {
        "topic_id": "31",
        "document_id": "10033395",
        "relevance": "1"
    },
    {
        "topic_id": "31",
        "document_id": "10033428",
        "relevance": "1"
    },
    {
        "topic_id": "31",
        "document_id": "211604",
        "relevance": "1"
    },
    {
        "topic_id": "31",
        "document_id": "32129475",
        "relevance": "2"
    },
    {
        "topic_id": "31",
        "document_id": "10033432",
        "relevance": "1"
    },
    {
        "topic_id": "31",
        "document_id": "10033484",
        "relevance": "1"
    },
    {
        "topic_id": "31",
        "document_id": "10033487",
        "relevance": "1"
    },
    {
        "topic_id": "31",
        "document_id": "10033478",
        "relevance": "1"
    },
    {
        "topic_id": "31",
        "document_id": "1870740",
        "relevance": "1"
    },
    {
        "topic_id": "31",
        "document_id": "10033411",
        "relevance": "1"
    },
    {
        "topic_id": "32",
        "document_id": "33135939",
        "relevance": "1"
    },
    {
        "topic_id": "32",
        "document_id": "33135374",
        "relevance": "1"
    },
    {
        "topic_id": "32",
        "document_id": "33135962",
        "relevance": "1"
    },
    {
        "topic_id": "32",
        "document_id": "2583606",
        "relevance": "0"
    },
    {
        "topic_id": "32",
        "document_id": "151982",
        "relevance": "0"
    },
    {
        "topic_id": "32",
        "document_id": "5495272",
        "relevance": "0"
    },
    {
        "topic_id": "32",
        "document_id": "29436709",
        "relevance": "0"
    },
    {
        "topic_id": "32",
        "document_id": "26250600",
        "relevance": "0"
    },
    {
        "topic_id": "32",
        "document_id": "21180606",
        "relevance": "0"
    },
    {
        "topic_id": "32",
        "document_id": "14921432",
        "relevance": "0"
    },
    {
        "topic_id": "33",
        "document_id": "54374253",
        "relevance": "2"
    },
    {
        "topic_id": "33",
        "document_id": "5467316",
        "relevance": "2"
    },
    {
        "topic_id": "33",
        "document_id": "60492886",
        "relevance": "2"
    },
    {
        "topic_id": "33",
        "document_id": "55556218",
        "relevance": "2"
    },
    {
        "topic_id": "33",
        "document_id": "10253316",
        "relevance": "1"
    },
    {
        "topic_id": "33",
        "document_id": "11942817",
        "relevance": "1"
    },
    {
        "topic_id": "33",
        "document_id": "33571034",
        "relevance": "1"
    },
    {
        "topic_id": "33",
        "document_id": "11946431",
        "relevance": "1"
    },
    {
        "topic_id": "33",
        "document_id": "13267018",
        "relevance": "0"
    },
    {
        "topic_id": "33",
        "document_id": "33571045",
        "relevance": "1"
    },
    {
        "topic_id": "34",
        "document_id": "23086777",
        "relevance": "2"
    },
    {
        "topic_id": "34",
        "document_id": "23092116",
        "relevance": "2"
    },
    {
        "topic_id": "34",
        "document_id": "24628616",
        "relevance": "2"
    },
    {
        "topic_id": "34",
        "document_id": "149347",
        "relevance": "1"
    },
    {
        "topic_id": "34",
        "document_id": "42496682",
        "relevance": "1"
    },
    {
        "topic_id": "34",
        "document_id": "187118",
        "relevance": "2"
    },
    {
        "topic_id": "34",
        "document_id": "24542414",
        "relevance": "2"
    },
    {
        "topic_id": "34",
        "document_id": "1572682",
        "relevance": "1"
    },
    {
        "topic_id": "34",
        "document_id": "11947753",
        "relevance": "2"
    },
    {
        "topic_id": "34",
        "document_id": "190993",
        "relevance": "1"
    },
    {
        "topic_id": "35",
        "document_id": "541388",
        "relevance": "1"
    },
    {
        "topic_id": "36",
        "document_id": "27706475",
        "relevance": "1"
    },
    {
        "topic_id": "36",
        "document_id": "8603366",
        "relevance": "1"
    },
    {
        "topic_id": "37",
        "document_id": "28936046",
        "relevance": "1"
    },
    {
        "topic_id": "37",
        "document_id": "47125853",
        "relevance": "2"
    },
    {
        "topic_id": "37",
        "document_id": "39774361",
        "relevance": "1"
    },
    {
        "topic_id": "37",
        "document_id": "37212431",
        "relevance": "2"
    },
    {
        "topic_id": "37",
        "document_id": "33895849",
        "relevance": "2"
    },
    {
        "topic_id": "37",
        "document_id": "46577671",
        "relevance": "1"
    },
    {
        "topic_id": "37",
        "document_id": "59683973",
        "relevance": "2"
    },
    {
        "topic_id": "37",
        "document_id": "21180606",
        "relevance": "1"
    },
    {
        "topic_id": "37",
        "document_id": "56463198",
        "relevance": "2"
    },
    {
        "topic_id": "37",
        "document_id": "47125847",
        "relevance": "1"
    },
    {
        "topic_id": "38",
        "document_id": "11446758",
        "relevance": "2"
    },
    {
        "topic_id": "38",
        "document_id": "5636605",
        "relevance": "2"
    },
    {
        "topic_id": "38",
        "document_id": "24323248",
        "relevance": "1"
    },
    {
        "topic_id": "38",
        "document_id": "228044",
        "relevance": "2"
    },
    {
        "topic_id": "38",
        "document_id": "26681227",
        "relevance": "1"
    },
    {
        "topic_id": "38",
        "document_id": "13460015",
        "relevance": "2"
    },
    {
        "topic_id": "38",
        "document_id": "16924684",
        "relevance": "2"
    },
    {
        "topic_id": "38",
        "document_id": "18419735",
        "relevance": "2"
    },
    {
        "topic_id": "38",
        "document_id": "58885157",
        "relevance": "2"
    },
    {
        "topic_id": "38",
        "document_id": "3395753",
        "relevance": "2"
    },
    {
        "topic_id": "39",
        "document_id": "12531556",
        "relevance": "1"
    },
    {
        "topic_id": "39",
        "document_id": "18731244",
        "relevance": "1"
    },
    {
        "topic_id": "39",
        "document_id": "53885416",
        "relevance": "1"
    },
    {
        "topic_id": "39",
        "document_id": "7856468",
        "relevance": "1"
    },
    {
        "topic_id": "39",
        "document_id": "7837102",
        "relevance": "0"
    },
    {
        "topic_id": "39",
        "document_id": "24542147",
        "relevance": "1"
    },
    {
        "topic_id": "39",
        "document_id": "2319839",
        "relevance": "0"
    },
    {
        "topic_id": "39",
        "document_id": "47058970",
        "relevance": "1"
    },
    {
        "topic_id": "39",
        "document_id": "24616770",
        "relevance": "0"
    },
    {
        "topic_id": "39",
        "document_id": "3335154",
        "relevance": "0"
    },
    {
        "topic_id": "40",
        "document_id": "12531556",
        "relevance": "0"
    },
    {
        "topic_id": "40",
        "document_id": "18731244",
        "relevance": "0"
    },
    {
        "topic_id": "40",
        "document_id": "14777491",
        "relevance": "1"
    },
    {
        "topic_id": "40",
        "document_id": "15760844",
        "relevance": "1"
    },
    {
        "topic_id": "40",
        "document_id": "42848537",
        "relevance": "1"
    },
    {
        "topic_id": "40",
        "document_id": "53885416",
        "relevance": "1"
    },
    {
        "topic_id": "40",
        "document_id": "24542147",
        "relevance": "1"
    },
    {
        "topic_id": "40",
        "document_id": "7856468",
        "relevance": "0"
    },
    {
        "topic_id": "40",
        "document_id": "37115404",
        "relevance": "2"
    },
    {
        "topic_id": "40",
        "document_id": "7837102",
        "relevance": "1"
    },
    {
        "topic_id": "41",
        "document_id": "12763275",
        "relevance": "0"
    },
    {
        "topic_id": "41",
        "document_id": "5694120",
        "relevance": "2"
    },
    {
        "topic_id": "41",
        "document_id": "34694194",
        "relevance": "2"
    },
    {
        "topic_id": "41",
        "document_id": "1722022",
        "relevance": "1"
    },
    {
        "topic_id": "41",
        "document_id": "20993484",
        "relevance": "2"
    },
    {
        "topic_id": "41",
        "document_id": "20993477",
        "relevance": "2"
    },
    {
        "topic_id": "41",
        "document_id": "20993452",
        "relevance": "2"
    },
    {
        "topic_id": "41",
        "document_id": "20993465",
        "relevance": "2"
    },
    {
        "topic_id": "41",
        "document_id": "217540",
        "relevance": "1"
    },
    {
        "topic_id": "41",
        "document_id": "20993444",
        "relevance": "2"
    },
    {
        "topic_id": "42",
        "document_id": "12763275",
        "relevance": "0"
    },
    {
        "topic_id": "42",
        "document_id": "1722022",
        "relevance": "1"
    },
    {
        "topic_id": "42",
        "document_id": "5694120",
        "relevance": "2"
    },
    {
        "topic_id": "42",
        "document_id": "20993484",
        "relevance": "2"
    },
    {
        "topic_id": "42",
        "document_id": "34694194",
        "relevance": "2"
    },
    {
        "topic_id": "42",
        "document_id": "20993477",
        "relevance": "2"
    },
    {
        "topic_id": "42",
        "document_id": "20993452",
        "relevance": "2"
    },
    {
        "topic_id": "42",
        "document_id": "20993465",
        "relevance": "2"
    },
    {
        "topic_id": "42",
        "document_id": "20993440",
        "relevance": "2"
    },
    {
        "topic_id": "42",
        "document_id": "20993444",
        "relevance": "2"
    },
    {
        "topic_id": "43",
        "document_id": "36468215",
        "relevance": "1"
    },
    {
        "topic_id": "43",
        "document_id": "88384",
        "relevance": "2"
    },
    {
        "topic_id": "43",
        "document_id": "31796220",
        "relevance": "2"
    },
    {
        "topic_id": "43",
        "document_id": "41840160",
        "relevance": "0"
    },
    {
        "topic_id": "43",
        "document_id": "33484180",
        "relevance": "0"
    },
    {
        "topic_id": "43",
        "document_id": "1383879",
        "relevance": "0"
    },
    {
        "topic_id": "43",
        "document_id": "31454412",
        "relevance": "0"
    },
    {
        "topic_id": "43",
        "document_id": "189351",
        "relevance": "1"
    },
    {
        "topic_id": "43",
        "document_id": "41557784",
        "relevance": "2"
    },
    {
        "topic_id": "43",
        "document_id": "58590778",
        "relevance": "1"
    },
    {
        "topic_id": "44",
        "document_id": "5968557",
        "relevance": "1"
    },
    {
        "topic_id": "44",
        "document_id": "10074669",
        "relevance": "1"
    },
    {
        "topic_id": "44",
        "document_id": "10074663",
        "relevance": "1"
    },
    {
        "topic_id": "44",
        "document_id": "51422547",
        "relevance": "1"
    },
    {
        "topic_id": "44",
        "document_id": "5505767",
        "relevance": "2"
    },
    {
        "topic_id": "44",
        "document_id": "2878347",
        "relevance": "2"
    },
    {
        "topic_id": "44",
        "document_id": "5873824",
        "relevance": "1"
    },
    {
        "topic_id": "44",
        "document_id": "4157144",
        "relevance": "1"
    },
    {
        "topic_id": "44",
        "document_id": "47862248",
        "relevance": "1"
    },
    {
        "topic_id": "44",
        "document_id": "10141640",
        "relevance": "0"
    },
    {
        "topic_id": "45",
        "document_id": "4216884",
        "relevance": "1"
    },
    {
        "topic_id": "45",
        "document_id": "41520924",
        "relevance": "1"
    },
    {
        "topic_id": "45",
        "document_id": "145612",
        "relevance": "1"
    },
    {
        "topic_id": "45",
        "document_id": "29635688",
        "relevance": "2"
    },
    {
        "topic_id": "45",
        "document_id": "49611087",
        "relevance": "2"
    },
    {
        "topic_id": "45",
        "document_id": "56666163",
        "relevance": "2"
    },
    {
        "topic_id": "45",
        "document_id": "19446295",
        "relevance": "1"
    },
    {
        "topic_id": "45",
        "document_id": "55736623",
        "relevance": "2"
    },
    {
        "topic_id": "45",
        "document_id": "48673320",
        "relevance": "2"
    },
    {
        "topic_id": "45",
        "document_id": "4209088",
        "relevance": "2"
    },
    {
        "topic_id": "46",
        "document_id": "38067919",
        "relevance": "2"
    },
    {
        "topic_id": "46",
        "document_id": "39529055",
        "relevance": "1"
    },
    {
        "topic_id": "46",
        "document_id": "37524348",
        "relevance": "2"
    },
    {
        "topic_id": "46",
        "document_id": "31584333",
        "relevance": "2"
    },
    {
        "topic_id": "46",
        "document_id": "33406536",
        "relevance": "1"
    },
    {
        "topic_id": "46",
        "document_id": "27375878",
        "relevance": "0"
    },
    {
        "topic_id": "46",
        "document_id": "39676843",
        "relevance": "1"
    },
    {
        "topic_id": "46",
        "document_id": "32716067",
        "relevance": "1"
    },
    {
        "topic_id": "46",
        "document_id": "24493891",
        "relevance": "0"
    },
    {
        "topic_id": "46",
        "document_id": "23123231",
        "relevance": "0"
    },
    {
        "topic_id": "48",
        "document_id": "11782848",
        "relevance": "2"
    },
    {
        "topic_id": "48",
        "document_id": "27734076",
        "relevance": "2"
    },
    {
        "topic_id": "48",
        "document_id": "42581330",
        "relevance": "1"
    },
    {
        "topic_id": "48",
        "document_id": "1219399",
        "relevance": "2"
    },
    {
        "topic_id": "48",
        "document_id": "5030240",
        "relevance": "1"
    },
    {
        "topic_id": "48",
        "document_id": "17307373",
        "relevance": "0"
    },
    {
        "topic_id": "48",
        "document_id": "56991000",
        "relevance": "2"
    },
    {
        "topic_id": "48",
        "document_id": "403255",
        "relevance": "2"
    },
    {
        "topic_id": "48",
        "document_id": "190797",
        "relevance": "1"
    },
    {
        "topic_id": "48",
        "document_id": "405063",
        "relevance": "1"
    },
    {
        "topic_id": "49",
        "document_id": "41840160",
        "relevance": "1"
    },
    {
        "topic_id": "49",
        "document_id": "33484180",
        "relevance": "1"
    },
    {
        "topic_id": "49",
        "document_id": "41557784",
        "relevance": "2"
    },
    {
        "topic_id": "49",
        "document_id": "31454412",
        "relevance": "1"
    },
    {
        "topic_id": "49",
        "document_id": "214438",
        "relevance": "2"
    },
    {
        "topic_id": "49",
        "document_id": "40478491",
        "relevance": "1"
    },
    {
        "topic_id": "49",
        "document_id": "42668289",
        "relevance": "0"
    },
    {
        "topic_id": "49",
        "document_id": "906754",
        "relevance": "0"
    },
    {
        "topic_id": "49",
        "document_id": "2674276",
        "relevance": "0"
    },
    {
        "topic_id": "49",
        "document_id": "40530790",
        "relevance": "1"
    },
    {
        "topic_id": "50",
        "document_id": "53082784",
        "relevance": "2"
    },
    {
        "topic_id": "50",
        "document_id": "4413341",
        "relevance": "2"
    },
    {
        "topic_id": "50",
        "document_id": "14921432",
        "relevance": "0"
    },
    {
        "topic_id": "50",
        "document_id": "21493015",
        "relevance": "0"
    },
    {
        "topic_id": "50",
        "document_id": "8282422",
        "relevance": "0"
    },
    {
        "topic_id": "50",
        "document_id": "25101",
        "relevance": "0"
    }
]