[
    {
        "topic_id": "1",
        "document_id": "661867",
        "relevance": "1"
    },
    {
        "topic_id": "1",
        "document_id": "997248",
        "relevance": "0"
    },
    {
        "topic_id": "1",
        "document_id": "4161230",
        "relevance": "0"
    },
    {
        "topic_id": "1",
        "document_id": "4206247",
        "relevance": "0"
    },
    {
        "topic_id": "1",
        "document_id": "14921432",
        "relevance": "1"
    },
    {
        "topic_id": "1",
        "document_id": "3633470",
        "relevance": "0"
    },
    {
        "topic_id": "1",
        "document_id": "39334105",
        "relevance": "1"
    },
    {
        "topic_id": "1",
        "document_id": "38827832",
        "relevance": "1"
    },
    {
        "topic_id": "1",
        "document_id": "403255",
        "relevance": "2"
    },
    {
        "topic_id": "1",
        "document_id": "36048595",
        "relevance": "1"
    },
    {
        "topic_id": "2",
        "document_id": "28156993",
        "relevance": "0"
    },
    {
        "topic_id": "2",
        "document_id": "14777491",
        "relevance": "1"
    },
    {
        "topic_id": "2",
        "document_id": "8348847",
        "relevance": "1"
    },
    {
        "topic_id": "2",
        "document_id": "7014346",
        "relevance": "0"
    },
    {
        "topic_id": "2",
        "document_id": "53684712",
        "relevance": "0"
    },
    {
        "topic_id": "2",
        "document_id": "7107864",
        "relevance": "0"
    },
    {
        "topic_id": "2",
        "document_id": "606539",
        "relevance": "0"
    },
    {
        "topic_id": "2",
        "document_id": "10813028",
        "relevance": "0"
    },
    {
        "topic_id": "2",
        "document_id": "42132518",
        "relevance": "0"
    },
    {
        "topic_id": "2",
        "document_id": "1820518",
        "relevance": "0"
    },
    {
        "topic_id": "3",
        "document_id": "25166206",
        "relevance": "1"
    },
    {
        "topic_id": "3",
        "document_id": "11442669",
        "relevance": "2"
    },
    {
        "topic_id": "3",
        "document_id": "58426777",
        "relevance": "2"
    },
    {
        "topic_id": "3",
        "document_id": "28623561",
        "relevance": "0"
    },
    {
        "topic_id": "3",
        "document_id": "4829287",
        "relevance": "0"
    },
    {
        "topic_id": "3",
        "document_id": "33259682",
        "relevance": "0"
    },
    {
        "topic_id": "3",
        "document_id": "1709485",
        "relevance": "0"
    },
    {
        "topic_id": "3",
        "document_id": "22344590",
        "relevance": "0"
    },
    {
        "topic_id": "3",
        "document_id": "2537696",
        "relevance": "0"
    },
    {
        "topic_id": "3",
        "document_id": "1019720",
        "relevance": "1"
    },
    {
        "topic_id": "4",
        "document_id": "22268217",
        "relevance": "1"
    },
    {
        "topic_id": "4",
        "document_id": "88156",
        "relevance": "1"
    },
    {
        "topic_id": "4",
        "document_id": "33895840",
        "relevance": "1"
    },
    {
        "topic_id": "4",
        "document_id": "11054648",
        "relevance": "0"
    },
    {
        "topic_id": "4",
        "document_id": "88146",
        "relevance": "0"
    },
    {
        "topic_id": "4",
        "document_id": "26536159",
        "relevance": "0"
    },
    {
        "topic_id": "4",
        "document_id": "112524",
        "relevance": "0"
    },
    {
        "topic_id": "4",
        "document_id": "23032479",
        "relevance": "1"
    },
    {
        "topic_id": "4",
        "document_id": "57121894",
        "relevance": "1"
    },
    {
        "topic_id": "4",
        "document_id": "563175",
        "relevance": "1"
    },
    {
        "topic_id": "5",
        "document_id": "47198",
        "relevance": "1"
    },
    {
        "topic_id": "5",
        "document_id": "39719628",
        "relevance": "2"
    },
    {
        "topic_id": "5",
        "document_id": "30519456",
        "relevance": "1"
    },
    {
        "topic_id": "5",
        "document_id": "55248085",
        "relevance": "0"
    },
    {
        "topic_id": "5",
        "document_id": "35216294",
        "relevance": "1"
    },
    {
        "topic_id": "5",
        "document_id": "39616642",
        "relevance": "1"
    },
    {
        "topic_id": "5",
        "document_id": "20858382",
        "relevance": "2"
    },
    {
        "topic_id": "5",
        "document_id": "31980732",
        "relevance": "1"
    },
    {
        "topic_id": "5",
        "document_id": "29343630",
        "relevance": "1"
    },
    {
        "topic_id": "5",
        "document_id": "44246077",
        "relevance": "1"
    },
    {
        "topic_id": "6",
        "document_id": "48948903",
        "relevance": "2"
    },
    {
        "topic_id": "6",
        "document_id": "39530768",
        "relevance": "1"
    },
    {
        "topic_id": "6",
        "document_id": "57406381",
        "relevance": "1"
    },
    {
        "topic_id": "6",
        "document_id": "41088267",
        "relevance": "1"
    },
    {
        "topic_id": "6",
        "document_id": "89061",
        "relevance": "1"
    },
    {
        "topic_id": "6",
        "document_id": "8827022",
        "relevance": "2"
    },
    {
        "topic_id": "6",
        "document_id": "3295",
        "relevance": "2"
    },
    {
        "topic_id": "6",
        "document_id": "54879112",
        "relevance": "1"
    },
    {
        "topic_id": "6",
        "document_id": "30356607",
        "relevance": "2"
    },
    {
        "topic_id": "6",
        "document_id": "5165542",
        "relevance": "2"
    },
    {
        "topic_id": "7",
        "document_id": "4698514",
        "relevance": "1"
    },
    {
        "topic_id": "7",
        "document_id": "16509174",
        "relevance": "2"
    },
    {
        "topic_id": "7",
        "document_id": "292633",
        "relevance": "2"
    },
    {
        "topic_id": "7",
        "document_id": "5498297",
        "relevance": "2"
    },
    {
        "topic_id": "7",
        "document_id": "12041554",
        "relevance": "2"
    },
    {
        "topic_id": "7",
        "document_id": "11975653",
        "relevance": "1"
    },
    {
        "topic_id": "7",
        "document_id": "5278170",
        "relevance": "1"
    },
    {
        "topic_id": "7",
        "document_id": "11975272",
        "relevance": "2"
    },
    {
        "topic_id": "7",
        "document_id": "4581094",
        "relevance": "2"
    },
    {
        "topic_id": "7",
        "document_id": "3878387",
        "relevance": "2"
    },
    {
        "topic_id": "8",
        "document_id": "27557259",
        "relevance": "2"
    },
    {
        "topic_id": "8",
        "document_id": "109925",
        "relevance": "2"
    },
    {
        "topic_id": "8",
        "document_id": "24928682",
        "relevance": "2"
    },
    {
        "topic_id": "8",
        "document_id": "26153397",
        "relevance": "2"
    },
    {
        "topic_id": "8",
        "document_id": "8641867",
        "relevance": "2"
    },
    {
        "topic_id": "8",
        "document_id": "112473",
        "relevance": "2"
    },
    {
        "topic_id": "8",
        "document_id": "41345632",
        "relevance": "1"
    },
    {
        "topic_id": "8",
        "document_id": "129176",
        "relevance": "2"
    },
    {
        "topic_id": "8",
        "document_id": "41575554",
        "relevance": "2"
    },
    {
        "topic_id": "8",
        "document_id": "31475776",
        "relevance": "2"
    },
    {
        "topic_id": "9",
        "document_id": "20937543",
        "relevance": "2"
    },
    {
        "topic_id": "9",
        "document_id": "1759769",
        "relevance": "2"
    },
    {
        "topic_id": "9",
        "document_id": "41580013",
        "relevance": "2"
    },
    {
        "topic_id": "9",
        "document_id": "71407",
        "relevance": "2"
    },
    {
        "topic_id": "9",
        "document_id": "13400173",
        "relevance": "2"
    },
    {
        "topic_id": "9",
        "document_id": "4781435",
        "relevance": "1"
    },
    {
        "topic_id": "9",
        "document_id": "13420347",
        "relevance": "2"
    },
    {
        "topic_id": "9",
        "document_id": "6846937",
        "relevance": "2"
    },
    {
        "topic_id": "9",
        "document_id": "13400283",
        "relevance": "2"
    },
    {
        "topic_id": "9",
        "document_id": "46186979",
        "relevance": "2"
    },
    {
        "topic_id": "10",
        "document_id": "1546410",
        "relevance": "2"
    },
    {
        "topic_id": "10",
        "document_id": "28845915",
        "relevance": "2"
    },
    {
        "topic_id": "10",
        "document_id": "25413606",
        "relevance": "2"
    },
    {
        "topic_id": "10",
        "document_id": "23549643",
        "relevance": "2"
    },
    {
        "topic_id": "10",
        "document_id": "27577698",
        "relevance": "2"
    },
    {
        "topic_id": "10",
        "document_id": "6975232",
        "relevance": "2"
    },
    {
        "topic_id": "10",
        "document_id": "55267409",
        "relevance": "2"
    },
    {
        "topic_id": "10",
        "document_id": "11897277",
        "relevance": "2"
    },
    {
        "topic_id": "10",
        "document_id": "22539745",
        "relevance": "2"
    },
    {
        "topic_id": "10",
        "document_id": "27875879",
        "relevance": "2"
    },
    {
        "topic_id": "11",
        "document_id": "17702950",
        "relevance": "1"
    },
    {
        "topic_id": "11",
        "document_id": "33568927",
        "relevance": "1"
    },
    {
        "topic_id": "11",
        "document_id": "3459930",
        "relevance": "2"
    },
    {
        "topic_id": "11",
        "document_id": "28926619",
        "relevance": "2"
    },
    {
        "topic_id": "11",
        "document_id": "19676899",
        "relevance": "2"
    },
    {
        "topic_id": "11",
        "document_id": "57375478",
        "relevance": "2"
    },
    {
        "topic_id": "11",
        "document_id": "4402289",
        "relevance": "2"
    },
    {
        "topic_id": "11",
        "document_id": "2529820",
        "relevance": "2"
    },
    {
        "topic_id": "11",
        "document_id": "33568941",
        "relevance": "1"
    },
    {
        "topic_id": "11",
        "document_id": "35993219",
        "relevance": "2"
    },
    {
        "topic_id": "12",
        "document_id": "54514165",
        "relevance": "2"
    },
    {
        "topic_id": "12",
        "document_id": "41078145",
        "relevance": "2"
    },
    {
        "topic_id": "12",
        "document_id": "22821309",
        "relevance": "1"
    },
    {
        "topic_id": "12",
        "document_id": "33043751",
        "relevance": "1"
    },
    {
        "topic_id": "12",
        "document_id": "33040016",
        "relevance": "1"
    },
    {
        "topic_id": "12",
        "document_id": "33012188",
        "relevance": "1"
    },
    {
        "topic_id": "12",
        "document_id": "10601753",
        "relevance": "1"
    },
    {
        "topic_id": "12",
        "document_id": "48952078",
        "relevance": "1"
    },
    {
        "topic_id": "12",
        "document_id": "10042144",
        "relevance": "1"
    },
    {
        "topic_id": "12",
        "document_id": "10033719",
        "relevance": "1"
    },
    {
        "topic_id": "13",
        "document_id": "33915315",
        "relevance": "2"
    },
    {
        "topic_id": "13",
        "document_id": "380245",
        "relevance": "2"
    },
    {
        "topic_id": "13",
        "document_id": "9720747",
        "relevance": "1"
    },
    {
        "topic_id": "13",
        "document_id": "5313820",
        "relevance": "1"
    },
    {
        "topic_id": "13",
        "document_id": "13467",
        "relevance": "1"
    },
    {
        "topic_id": "13",
        "document_id": "4174344",
        "relevance": "1"
    },
    {
        "topic_id": "13",
        "document_id": "16906107",
        "relevance": "1"
    },
    {
        "topic_id": "13",
        "document_id": "25091992",
        "relevance": "1"
    },
    {
        "topic_id": "13",
        "document_id": "1237803",
        "relevance": "2"
    },
    {
        "topic_id": "13",
        "document_id": "15396710",
        "relevance": "1"
    },
    {
        "topic_id": "14",
        "document_id": "745358",
        "relevance": "1"
    },
    {
        "topic_id": "14",
        "document_id": "8689125",
        "relevance": "1"
    },
    {
        "topic_id": "14",
        "document_id": "19058",
        "relevance": "1"
    },
    {
        "topic_id": "14",
        "document_id": "6738209",
        "relevance": "2"
    },
    {
        "topic_id": "14",
        "document_id": "2736871",
        "relevance": "1"
    },
    {
        "topic_id": "14",
        "document_id": "21807640",
        "relevance": "1"
    },
    {
        "topic_id": "14",
        "document_id": "28561762",
        "relevance": "2"
    },
    {
        "topic_id": "14",
        "document_id": "19014083",
        "relevance": "0"
    },
    {
        "topic_id": "14",
        "document_id": "28864879",
        "relevance": "2"
    },
    {
        "topic_id": "14",
        "document_id": "28608902",
        "relevance": "1"
    },
    {
        "topic_id": "15",
        "document_id": "675667",
        "relevance": "0"
    },
    {
        "topic_id": "15",
        "document_id": "49663929",
        "relevance": "0"
    },
    {
        "topic_id": "15",
        "document_id": "149924",
        "relevance": "0"
    },
    {
        "topic_id": "15",
        "document_id": "8257877",
        "relevance": "1"
    },
    {
        "topic_id": "15",
        "document_id": "23388868",
        "relevance": "1"
    },
    {
        "topic_id": "15",
        "document_id": "25166206",
        "relevance": "1"
    },
    {
        "topic_id": "15",
        "document_id": "42120622",
        "relevance": "0"
    },
    {
        "topic_id": "15",
        "document_id": "1386159",
        "relevance": "0"
    },
    {
        "topic_id": "15",
        "document_id": "856022",
        "relevance": "0"
    },
    {
        "topic_id": "15",
        "document_id": "4479590",
        "relevance": "0"
    },
    {
        "topic_id": "16",
        "document_id": "55857",
        "relevance": "0"
    },
    {
        "topic_id": "17",
        "document_id": "15438922",
        "relevance": "2"
    },
    {
        "topic_id": "17",
        "document_id": "8573645",
        "relevance": "0"
    },
    {
        "topic_id": "17",
        "document_id": "5203904",
        "relevance": "1"
    },
    {
        "topic_id": "17",
        "document_id": "5812254",
        "relevance": "1"
    },
    {
        "topic_id": "17",
        "document_id": "17605016",
        "relevance": "1"
    },
    {
        "topic_id": "17",
        "document_id": "29763961",
        "relevance": "1"
    },
    {
        "topic_id": "17",
        "document_id": "29775026",
        "relevance": "1"
    },
    {
        "topic_id": "17",
        "document_id": "6814366",
        "relevance": "0"
    },
    {
        "topic_id": "17",
        "document_id": "5733841",
        "relevance": "1"
    },
    {
        "topic_id": "17",
        "document_id": "46439020",
        "relevance": "2"
    },
    {
        "topic_id": "18",
        "document_id": "9349800",
        "relevance": "2"
    },
    {
        "topic_id": "18",
        "document_id": "165098",
        "relevance": "0"
    },
    {
        "topic_id": "18",
        "document_id": "5487987",
        "relevance": "0"
    },
    {
        "topic_id": "18",
        "document_id": "2468965",
        "relevance": "0"
    },
    {
        "topic_id": "19",
        "document_id": "2386812",
        "relevance": "1"
    },
    {
        "topic_id": "19",
        "document_id": "26775679",
        "relevance": "0"
    },
    {
        "topic_id": "19",
        "document_id": "33895588",
        "relevance": "2"
    },
    {
        "topic_id": "19",
        "document_id": "20743294",
        "relevance": "0"
    },
    {
        "topic_id": "19",
        "document_id": "50098199",
        "relevance": "0"
    },
    {
        "topic_id": "19",
        "document_id": "20907274",
        "relevance": "0"
    },
    {
        "topic_id": "19",
        "document_id": "68836",
        "relevance": "0"
    },
    {
        "topic_id": "19",
        "document_id": "7825135",
        "relevance": "0"
    },
    {
        "topic_id": "19",
        "document_id": "65430",
        "relevance": "0"
    },
    {
        "topic_id": "19",
        "document_id": "25523606",
        "relevance": "0"
    },
    {
        "topic_id": "20",
        "document_id": "43472123",
        "relevance": "2"
    },
    {
        "topic_id": "20",
        "document_id": "7201885",
        "relevance": "2"
    },
    {
        "topic_id": "20",
        "document_id": "53753409",
        "relevance": "2"
    },
    {
        "topic_id": "20",
        "document_id": "32480554",
        "relevance": "2"
    },
    {
        "topic_id": "20",
        "document_id": "4256490",
        "relevance": "2"
    },
    {
        "topic_id": "20",
        "document_id": "43802462",
        "relevance": "1"
    },
    {
        "topic_id": "20",
        "document_id": "34216232",
        "relevance": "1"
    },
    {
        "topic_id": "20",
        "document_id": "57095514",
        "relevance": "1"
    },
    {
        "topic_id": "20",
        "document_id": "8503474",
        "relevance": "1"
    },
    {
        "topic_id": "20",
        "document_id": "5918740",
        "relevance": "1"
    },
    {
        "topic_id": "21",
        "document_id": "56618703",
        "relevance": "1"
    },
    {
        "topic_id": "21",
        "document_id": "188921",
        "relevance": "2"
    },
    {
        "topic_id": "21",
        "document_id": "29716686",
        "relevance": "1"
    },
    {
        "topic_id": "21",
        "document_id": "17012542",
        "relevance": "2"
    },
    {
        "topic_id": "21",
        "document_id": "24355642",
        "relevance": "1"
    },
    {
        "topic_id": "21",
        "document_id": "3212165",
        "relevance": "2"
    },
    {
        "topic_id": "21",
        "document_id": "30653166",
        "relevance": "2"
    },
    {
        "topic_id": "21",
        "document_id": "37410",
        "relevance": "1"
    },
    {
        "topic_id": "21",
        "document_id": "42853638",
        "relevance": "2"
    },
    {
        "topic_id": "21",
        "document_id": "38860",
        "relevance": "1"
    },
    {
        "topic_id": "22",
        "document_id": "6554906",
        "relevance": "1"
    },
    {
        "topic_id": "22",
        "document_id": "3492726",
        "relevance": "1"
    },
    {
        "topic_id": "22",
        "document_id": "5121474",
        "relevance": "2"
    },
    {
        "topic_id": "22",
        "document_id": "22667388",
        "relevance": "2"
    },
    {
        "topic_id": "22",
        "document_id": "23475960",
        "relevance": "2"
    },
    {
        "topic_id": "22",
        "document_id": "44861200",
        "relevance": "1"
    },
    {
        "topic_id": "22",
        "document_id": "24975414",
        "relevance": "1"
    },
    {
        "topic_id": "22",
        "document_id": "23487483",
        "relevance": "2"
    },
    {
        "topic_id": "22",
        "document_id": "24572395",
        "relevance": "2"
    },
    {
        "topic_id": "22",
        "document_id": "22513863",
        "relevance": "1"
    },
    {
        "topic_id": "23",
        "document_id": "158501",
        "relevance": "0"
    },
    {
        "topic_id": "24",
        "document_id": "4688649",
        "relevance": "2"
    },
    {
        "topic_id": "24",
        "document_id": "99627",
        "relevance": "1"
    },
    {
        "topic_id": "24",
        "document_id": "33895922",
        "relevance": "2"
    },
    {
        "topic_id": "24",
        "document_id": "15778253",
        "relevance": "1"
    },
    {
        "topic_id": "24",
        "document_id": "593353",
        "relevance": "0"
    },
    {
        "topic_id": "24",
        "document_id": "33895882",
        "relevance": "2"
    },
    {
        "topic_id": "24",
        "document_id": "145612",
        "relevance": "0"
    },
    {
        "topic_id": "24",
        "document_id": "8351187",
        "relevance": "0"
    },
    {
        "topic_id": "24",
        "document_id": "550062",
        "relevance": "1"
    },
    {
        "topic_id": "24",
        "document_id": "6990937",
        "relevance": "1"
    },
    {
        "topic_id": "25",
        "document_id": "197306",
        "relevance": "2"
    },
    {
        "topic_id": "25",
        "document_id": "1341297",
        "relevance": "2"
    },
    {
        "topic_id": "25",
        "document_id": "33260606",
        "relevance": "2"
    },
    {
        "topic_id": "25",
        "document_id": "45075679",
        "relevance": "2"
    },
    {
        "topic_id": "25",
        "document_id": "252714",
        "relevance": "2"
    },
    {
        "topic_id": "25",
        "document_id": "37787",
        "relevance": "2"
    },
    {
        "topic_id": "25",
        "document_id": "20122117",
        "relevance": "2"
    },
    {
        "topic_id": "25",
        "document_id": "8356174",
        "relevance": "2"
    },
    {
        "topic_id": "25",
        "document_id": "23878561",
        "relevance": "2"
    },
    {
        "topic_id": "25",
        "document_id": "49395857",
        "relevance": "2"
    },
    {
        "topic_id": "26",
        "document_id": "18893307",
        "relevance": "1"
    },
    {
        "topic_id": "26",
        "document_id": "17955",
        "relevance": "1"
    },
    {
        "topic_id": "26",
        "document_id": "36564588",
        "relevance": "2"
    },
    {
        "topic_id": "26",
        "document_id": "56095636",
        "relevance": "1"
    },
    {
        "topic_id": "26",
        "document_id": "5427509",
        "relevance": "1"
    },
    {
        "topic_id": "26",
        "document_id": "27270282",
        "relevance": "1"
    },
    {
        "topic_id": "26",
        "document_id": "933014",
        "relevance": "1"
    },
    {
        "topic_id": "26",
        "document_id": "12235190",
        "relevance": "0"
    },
    {
        "topic_id": "26",
        "document_id": "5511322",
        "relevance": "1"
    },
    {
        "topic_id": "26",
        "document_id": "45505890",
        "relevance": "2"
    },
    {
        "topic_id": "27",
        "document_id": "17827850",
        "relevance": "0"
    },
    {
        "topic_id": "27",
        "document_id": "36544010",
        "relevance": "2"
    },
    {
        "topic_id": "27",
        "document_id": "1358048",
        "relevance": "2"
    },
    {
        "topic_id": "27",
        "document_id": "259771",
        "relevance": "1"
    },
    {
        "topic_id": "27",
        "document_id": "1358043",
        "relevance": "2"
    },
    {
        "topic_id": "27",
        "document_id": "13467",
        "relevance": "1"
    },
    {
        "topic_id": "27",
        "document_id": "58610134",
        "relevance": "2"
    },
    {
        "topic_id": "27",
        "document_id": "17560658",
        "relevance": "1"
    },
    {
        "topic_id": "27",
        "document_id": "2256414",
        "relevance": "0"
    },
    {
        "topic_id": "27",
        "document_id": "3155522",
        "relevance": "0"
    },
    {
        "topic_id": "28",
        "document_id": "26799794",
        "relevance": "1"
    },
    {
        "topic_id": "28",
        "document_id": "10851046",
        "relevance": "2"
    },
    {
        "topic_id": "28",
        "document_id": "26929531",
        "relevance": "2"
    },
    {
        "topic_id": "28",
        "document_id": "7069643",
        "relevance": "2"
    },
    {
        "topic_id": "28",
        "document_id": "24641388",
        "relevance": "1"
    },
    {
        "topic_id": "28",
        "document_id": "88384",
        "relevance": "2"
    },
    {
        "topic_id": "28",
        "document_id": "30678539",
        "relevance": "2"
    },
    {
        "topic_id": "28",
        "document_id": "30522593",
        "relevance": "2"
    },
    {
        "topic_id": "28",
        "document_id": "20110288",
        "relevance": "2"
    },
    {
        "topic_id": "28",
        "document_id": "1815664",
        "relevance": "1"
    },
    {
        "topic_id": "29",
        "document_id": "115833",
        "relevance": "1"
    },
    {
        "topic_id": "29",
        "document_id": "31212588",
        "relevance": "2"
    },
    {
        "topic_id": "29",
        "document_id": "31938140",
        "relevance": "2"
    },
    {
        "topic_id": "29",
        "document_id": "15277176",
        "relevance": "1"
    },
    {
        "topic_id": "29",
        "document_id": "124408",
        "relevance": "1"
    },
    {
        "topic_id": "29",
        "document_id": "13920622",
        "relevance": "1"
    },
    {
        "topic_id": "29",
        "document_id": "15344298",
        "relevance": "1"
    },
    {
        "topic_id": "29",
        "document_id": "15293629",
        "relevance": "1"
    },
    {
        "topic_id": "29",
        "document_id": "42148650",
        "relevance": "1"
    },
    {
        "topic_id": "29",
        "document_id": "15343191",
        "relevance": "1"
    },
    {
        "topic_id": "30",
        "document_id": "348725",
        "relevance": "2"
    },
    {
        "topic_id": "30",
        "document_id": "2842337",
        "relevance": "1"
    },
    {
        "topic_id": "30",
        "document_id": "28116413",
        "relevance": "2"
    },
    {
        "topic_id": "30",
        "document_id": "222452",
        "relevance": "1"
    },
    {
        "topic_id": "30",
        "document_id": "33023127",
        "relevance": "2"
    },
    {
        "topic_id": "30",
        "document_id": "5314950",
        "relevance": "2"
    },
    {
        "topic_id": "30",
        "document_id": "42537959",
        "relevance": "2"
    },
    {
        "topic_id": "30",
        "document_id": "53741936",
        "relevance": "2"
    },
    {
        "topic_id": "30",
        "document_id": "24147714",
        "relevance": "0"
    },
    {
        "topic_id": "30",
        "document_id": "53033291",
        "relevance": "2"
    },
    {
        "topic_id": "31",
        "document_id": "211604",
        "relevance": "1"
    },
    {
        "topic_id": "31",
        "document_id": "58597518",
        "relevance": "1"
    },
    {
        "topic_id": "31",
        "document_id": "10033395",
        "relevance": "1"
    },
    {
        "topic_id": "31",
        "document_id": "10040897",
        "relevance": "1"
    },
    {
        "topic_id": "31",
        "document_id": "32129475",
        "relevance": "2"
    },
    {
        "topic_id": "31",
        "document_id": "10033374",
        "relevance": "1"
    },
    {
        "topic_id": "31",
        "document_id": "10033411",
        "relevance": "1"
    },
    {
        "topic_id": "31",
        "document_id": "10033484",
        "relevance": "1"
    },
    {
        "topic_id": "31",
        "document_id": "10033441",
        "relevance": "1"
    },
    {
        "topic_id": "31",
        "document_id": "1870746",
        "relevance": "1"
    },
    {
        "topic_id": "32",
        "document_id": "33135939",
        "relevance": "1"
    },
    {
        "topic_id": "32",
        "document_id": "33135374",
        "relevance": "1"
    },
    {
        "topic_id": "32",
        "document_id": "27243821",
        "relevance": "0"
    },
    {
        "topic_id": "32",
        "document_id": "33135962",
        "relevance": "1"
    },
    {
        "topic_id": "32",
        "document_id": "26711467",
        "relevance": "0"
    },
    {
        "topic_id": "32",
        "document_id": "151982",
        "relevance": "0"
    },
    {
        "topic_id": "32",
        "document_id": "58041837",
        "relevance": "0"
    },
    {
        "topic_id": "32",
        "document_id": "5495272",
        "relevance": "0"
    },
    {
        "topic_id": "32",
        "document_id": "2583606",
        "relevance": "0"
    },
    {
        "topic_id": "32",
        "document_id": "1878187",
        "relevance": "0"
    },
    {
        "topic_id": "33",
        "document_id": "5467316",
        "relevance": "2"
    },
    {
        "topic_id": "33",
        "document_id": "54374253",
        "relevance": "2"
    },
    {
        "topic_id": "33",
        "document_id": "11942817",
        "relevance": "1"
    },
    {
        "topic_id": "33",
        "document_id": "55556218",
        "relevance": "2"
    },
    {
        "topic_id": "33",
        "document_id": "60492886",
        "relevance": "2"
    },
    {
        "topic_id": "33",
        "document_id": "271043",
        "relevance": "1"
    },
    {
        "topic_id": "33",
        "document_id": "10253316",
        "relevance": "1"
    },
    {
        "topic_id": "33",
        "document_id": "33571034",
        "relevance": "1"
    },
    {
        "topic_id": "33",
        "document_id": "371249",
        "relevance": "0"
    },
    {
        "topic_id": "33",
        "document_id": "11946431",
        "relevance": "1"
    },
    {
        "topic_id": "34",
        "document_id": "42496682",
        "relevance": "1"
    },
    {
        "topic_id": "34",
        "document_id": "24542414",
        "relevance": "2"
    },
    {
        "topic_id": "34",
        "document_id": "24628616",
        "relevance": "2"
    },
    {
        "topic_id": "34",
        "document_id": "55780161",
        "relevance": "2"
    },
    {
        "topic_id": "34",
        "document_id": "3689030",
        "relevance": "2"
    },
    {
        "topic_id": "34",
        "document_id": "149347",
        "relevance": "1"
    },
    {
        "topic_id": "34",
        "document_id": "55983496",
        "relevance": "2"
    },
    {
        "topic_id": "34",
        "document_id": "2561440",
        "relevance": "0"
    },
    {
        "topic_id": "34",
        "document_id": "187118",
        "relevance": "2"
    },
    {
        "topic_id": "34",
        "document_id": "23086777",
        "relevance": "2"
    },
    {
        "topic_id": "35",
        "document_id": "541388",
        "relevance": "1"
    },
    {
        "topic_id": "37",
        "document_id": "101832",
        "relevance": "1"
    },
    {
        "topic_id": "37",
        "document_id": "47125853",
        "relevance": "2"
    },
    {
        "topic_id": "37",
        "document_id": "59683973",
        "relevance": "2"
    },
    {
        "topic_id": "37",
        "document_id": "39774361",
        "relevance": "1"
    },
    {
        "topic_id": "37",
        "document_id": "28936046",
        "relevance": "1"
    },
    {
        "topic_id": "37",
        "document_id": "37212431",
        "relevance": "2"
    },
    {
        "topic_id": "37",
        "document_id": "56463198",
        "relevance": "2"
    },
    {
        "topic_id": "37",
        "document_id": "54356397",
        "relevance": "1"
    },
    {
        "topic_id": "37",
        "document_id": "48478914",
        "relevance": "1"
    },
    {
        "topic_id": "37",
        "document_id": "2438717",
        "relevance": "1"
    },
    {
        "topic_id": "38",
        "document_id": "21180606",
        "relevance": "1"
    },
    {
        "topic_id": "38",
        "document_id": "24323248",
        "relevance": "1"
    },
    {
        "topic_id": "38",
        "document_id": "26681227",
        "relevance": "1"
    },
    {
        "topic_id": "38",
        "document_id": "47136214",
        "relevance": "2"
    },
    {
        "topic_id": "38",
        "document_id": "18731244",
        "relevance": "1"
    },
    {
        "topic_id": "38",
        "document_id": "11734518",
        "relevance": "1"
    },
    {
        "topic_id": "38",
        "document_id": "15328380",
        "relevance": "0"
    },
    {
        "topic_id": "38",
        "document_id": "49899276",
        "relevance": "0"
    },
    {
        "topic_id": "38",
        "document_id": "5497177",
        "relevance": "0"
    },
    {
        "topic_id": "38",
        "document_id": "42121317",
        "relevance": "0"
    },
    {
        "topic_id": "39",
        "document_id": "24542147",
        "relevance": "1"
    },
    {
        "topic_id": "39",
        "document_id": "13467",
        "relevance": "1"
    },
    {
        "topic_id": "39",
        "document_id": "21734363",
        "relevance": "2"
    },
    {
        "topic_id": "39",
        "document_id": "18731244",
        "relevance": "1"
    },
    {
        "topic_id": "39",
        "document_id": "32054328",
        "relevance": "2"
    },
    {
        "topic_id": "39",
        "document_id": "7837102",
        "relevance": "0"
    },
    {
        "topic_id": "39",
        "document_id": "333534",
        "relevance": "0"
    },
    {
        "topic_id": "39",
        "document_id": "4524241",
        "relevance": "0"
    },
    {
        "topic_id": "39",
        "document_id": "147612",
        "relevance": "0"
    },
    {
        "topic_id": "39",
        "document_id": "24110512",
        "relevance": "2"
    },
    {
        "topic_id": "40",
        "document_id": "24542147",
        "relevance": "1"
    },
    {
        "topic_id": "40",
        "document_id": "3688503",
        "relevance": "1"
    },
    {
        "topic_id": "40",
        "document_id": "21734363",
        "relevance": "1"
    },
    {
        "topic_id": "40",
        "document_id": "13467",
        "relevance": "1"
    },
    {
        "topic_id": "40",
        "document_id": "15760844",
        "relevance": "1"
    },
    {
        "topic_id": "40",
        "document_id": "18731244",
        "relevance": "0"
    },
    {
        "topic_id": "40",
        "document_id": "32054328",
        "relevance": "1"
    },
    {
        "topic_id": "40",
        "document_id": "14777491",
        "relevance": "1"
    },
    {
        "topic_id": "40",
        "document_id": "372052",
        "relevance": "1"
    },
    {
        "topic_id": "40",
        "document_id": "42848537",
        "relevance": "1"
    },
    {
        "topic_id": "41",
        "document_id": "115357",
        "relevance": "1"
    },
    {
        "topic_id": "41",
        "document_id": "12763275",
        "relevance": "0"
    },
    {
        "topic_id": "41",
        "document_id": "5910860",
        "relevance": "1"
    },
    {
        "topic_id": "41",
        "document_id": "5895456",
        "relevance": "1"
    },
    {
        "topic_id": "41",
        "document_id": "5845526",
        "relevance": "1"
    },
    {
        "topic_id": "41",
        "document_id": "16774848",
        "relevance": "1"
    },
    {
        "topic_id": "41",
        "document_id": "5694120",
        "relevance": "2"
    },
    {
        "topic_id": "41",
        "document_id": "33076655",
        "relevance": "1"
    },
    {
        "topic_id": "41",
        "document_id": "20993392",
        "relevance": "2"
    },
    {
        "topic_id": "41",
        "document_id": "166888",
        "relevance": "1"
    },
    {
        "topic_id": "42",
        "document_id": "115357",
        "relevance": "1"
    },
    {
        "topic_id": "42",
        "document_id": "12763275",
        "relevance": "0"
    },
    {
        "topic_id": "42",
        "document_id": "5910860",
        "relevance": "1"
    },
    {
        "topic_id": "42",
        "document_id": "5895456",
        "relevance": "1"
    },
    {
        "topic_id": "42",
        "document_id": "166888",
        "relevance": "1"
    },
    {
        "topic_id": "42",
        "document_id": "5694120",
        "relevance": "2"
    },
    {
        "topic_id": "42",
        "document_id": "5845526",
        "relevance": "1"
    },
    {
        "topic_id": "42",
        "document_id": "20993392",
        "relevance": "2"
    },
    {
        "topic_id": "42",
        "document_id": "5810805",
        "relevance": "1"
    },
    {
        "topic_id": "42",
        "document_id": "34319675",
        "relevance": "1"
    },
    {
        "topic_id": "43",
        "document_id": "31796220",
        "relevance": "2"
    },
    {
        "topic_id": "43",
        "document_id": "88384",
        "relevance": "2"
    },
    {
        "topic_id": "43",
        "document_id": "36468215",
        "relevance": "1"
    },
    {
        "topic_id": "43",
        "document_id": "58590778",
        "relevance": "1"
    },
    {
        "topic_id": "43",
        "document_id": "1674715",
        "relevance": "2"
    },
    {
        "topic_id": "43",
        "document_id": "2189046",
        "relevance": "1"
    },
    {
        "topic_id": "43",
        "document_id": "4906111",
        "relevance": "1"
    },
    {
        "topic_id": "43",
        "document_id": "48901668",
        "relevance": "1"
    },
    {
        "topic_id": "43",
        "document_id": "33484180",
        "relevance": "0"
    },
    {
        "topic_id": "43",
        "document_id": "6198170",
        "relevance": "1"
    },
    {
        "topic_id": "44",
        "document_id": "5968557",
        "relevance": "1"
    },
    {
        "topic_id": "44",
        "document_id": "10074669",
        "relevance": "1"
    },
    {
        "topic_id": "44",
        "document_id": "5505767",
        "relevance": "2"
    },
    {
        "topic_id": "44",
        "document_id": "51422547",
        "relevance": "1"
    },
    {
        "topic_id": "44",
        "document_id": "10074663",
        "relevance": "1"
    },
    {
        "topic_id": "44",
        "document_id": "10141640",
        "relevance": "0"
    },
    {
        "topic_id": "44",
        "document_id": "49091991",
        "relevance": "1"
    },
    {
        "topic_id": "44",
        "document_id": "4157144",
        "relevance": "1"
    },
    {
        "topic_id": "44",
        "document_id": "2878347",
        "relevance": "2"
    },
    {
        "topic_id": "44",
        "document_id": "47862248",
        "relevance": "1"
    },
    {
        "topic_id": "45",
        "document_id": "56079602",
        "relevance": "2"
    },
    {
        "topic_id": "45",
        "document_id": "145612",
        "relevance": "1"
    },
    {
        "topic_id": "45",
        "document_id": "55941016",
        "relevance": "2"
    },
    {
        "topic_id": "45",
        "document_id": "4216884",
        "relevance": "1"
    },
    {
        "topic_id": "45",
        "document_id": "56666163",
        "relevance": "2"
    },
    {
        "topic_id": "45",
        "document_id": "20284451",
        "relevance": "2"
    },
    {
        "topic_id": "45",
        "document_id": "55624609",
        "relevance": "2"
    },
    {
        "topic_id": "45",
        "document_id": "2842337",
        "relevance": "1"
    },
    {
        "topic_id": "45",
        "document_id": "4413332",
        "relevance": "1"
    },
    {
        "topic_id": "45",
        "document_id": "29635688",
        "relevance": "2"
    },
    {
        "topic_id": "46",
        "document_id": "9311312",
        "relevance": "0"
    },
    {
        "topic_id": "46",
        "document_id": "5418420",
        "relevance": "2"
    },
    {
        "topic_id": "46",
        "document_id": "6488945",
        "relevance": "1"
    },
    {
        "topic_id": "46",
        "document_id": "36507926",
        "relevance": "2"
    },
    {
        "topic_id": "46",
        "document_id": "30758169",
        "relevance": "2"
    },
    {
        "topic_id": "46",
        "document_id": "32266235",
        "relevance": "2"
    },
    {
        "topic_id": "46",
        "document_id": "1572498",
        "relevance": "1"
    },
    {
        "topic_id": "46",
        "document_id": "5694991",
        "relevance": "2"
    },
    {
        "topic_id": "46",
        "document_id": "29844657",
        "relevance": "2"
    },
    {
        "topic_id": "46",
        "document_id": "196897",
        "relevance": "1"
    },
    {
        "topic_id": "48",
        "document_id": "10184059",
        "relevance": "2"
    },
    {
        "topic_id": "48",
        "document_id": "56991000",
        "relevance": "2"
    },
    {
        "topic_id": "48",
        "document_id": "17307373",
        "relevance": "0"
    },
    {
        "topic_id": "48",
        "document_id": "8594059",
        "relevance": "2"
    },
    {
        "topic_id": "48",
        "document_id": "27734076",
        "relevance": "2"
    },
    {
        "topic_id": "48",
        "document_id": "10180787",
        "relevance": "2"
    },
    {
        "topic_id": "48",
        "document_id": "33906147",
        "relevance": "2"
    },
    {
        "topic_id": "48",
        "document_id": "1748834",
        "relevance": "1"
    },
    {
        "topic_id": "48",
        "document_id": "42581330",
        "relevance": "1"
    },
    {
        "topic_id": "48",
        "document_id": "190797",
        "relevance": "1"
    },
    {
        "topic_id": "49",
        "document_id": "41557784",
        "relevance": "2"
    },
    {
        "topic_id": "49",
        "document_id": "447367",
        "relevance": "2"
    },
    {
        "topic_id": "49",
        "document_id": "41840160",
        "relevance": "1"
    },
    {
        "topic_id": "49",
        "document_id": "214438",
        "relevance": "2"
    },
    {
        "topic_id": "49",
        "document_id": "9942657",
        "relevance": "2"
    },
    {
        "topic_id": "49",
        "document_id": "33484180",
        "relevance": "1"
    },
    {
        "topic_id": "49",
        "document_id": "31454412",
        "relevance": "1"
    },
    {
        "topic_id": "49",
        "document_id": "5453295",
        "relevance": "1"
    },
    {
        "topic_id": "49",
        "document_id": "463967",
        "relevance": "1"
    },
    {
        "topic_id": "49",
        "document_id": "10736308",
        "relevance": "0"
    },
    {
        "topic_id": "50",
        "document_id": "53082784",
        "relevance": "2"
    },
    {
        "topic_id": "50",
        "document_id": "4413341",
        "relevance": "2"
    },
    {
        "topic_id": "50",
        "document_id": "14921432",
        "relevance": "0"
    },
    {
        "topic_id": "50",
        "document_id": "21493015",
        "relevance": "0"
    },
    {
        "topic_id": "50",
        "document_id": "8282422",
        "relevance": "0"
    },
    {
        "topic_id": "50",
        "document_id": "25101",
        "relevance": "0"
    }
]